{
  "header": {
    "version": 4,
    "description": "Karaoke Mugen Karaoke Data File"
  },
  "medias": [
    {
      "version": "Default",
      "filename": "ENG - Arknights Perish in Frost - OP - ACHE in PULSE.mp4",
      "loudnorm": "-17.51,-6.53,9.10,-27.65,-1.41",
      "filesize": 17266136,
      "duration": 90,
      "default": true,
      "lyrics": [
        {
          "filename": "ENG - Arknights Perish in Frost - OP - ACHE in PULSE.ass",
          "default": true,
          "version": "Default"
        }
      ]
    }
  ],
  "data": {
    "created_at": "2023-10-25T21:42:15.186Z",
    "ignoreHooks": false,
    "kid": "43c5d5b2-f1ae-48d1-b9a3-c937e54aa168",
    "modified_at": "2023-10-25T22:10:00.838Z",
    "repository": "kara.moe",
    "tags": {
      "authors": [
        "78d42fee-8d3e-4bd5-9c44-98ce55f7d21f",
        "90698f28-1d62-4673-82c4-33ae96b1ba97"
      ],
      "collections": [
        "c7db86a0-ff64-4044-9be4-66dd1ef1d1c1"
      ],
      "creators": [
        "0a4d0cfc-c343-4d11-9324-a1f6f67d11ff"
      ],
      "families": [
        "0377db02-3af6-43b8-9b08-c759df3d25c3"
      ],
      "groups": [
        "8e209ae4-4381-438f-89dc-1b21752027d2"
      ],
      "langs": [
        "4dcf9614-7914-42aa-99f4-dbce2e059133",
        "de5eda1c-5fb3-46a6-9606-d4554fc5a1d6"
      ],
      "misc": [
        "fe819ff1-9db8-4a0f-85dc-0e322c9126c4"
      ],
      "origins": [
        "938de218-5343-4865-94d3-fb33f2eaa152"
      ],
      "series": [
        "3bbea257-bcee-4806-87ec-f2aca1aeb589"
      ],
      "singers": [
        "80421b19-c148-48d8-af54-ac45aae600c6"
      ],
      "songtypes": [
        "f02ad9b3-0bd9-4aad-85b3-9976739ba0e4"
      ],
      "songwriters": [
        "80421b19-c148-48d8-af54-ac45aae600c6"
      ],
      "franchises": [
        "6c9dee36-911a-4e24-8e5c-45e8545aca6f"
      ]
    },
    "titles": {
      "eng": "ACHE in PULSE"
    },
    "titles_default_language": "eng",
    "year": 2023
  }
}