{
  "header": {
    "version": 4,
    "description": "Karaoke Mugen Karaoke Data File"
  },
  "medias": [
    {
      "version": "Default",
      "filename": "ENG - Cowboy Bebop - ED2 - Blue.mp4",
      "audiogain": 0.59,
      "loudnorm": "-19.37,-7.16,13.20,-29.92,-1.76",
      "filesize": 34179095,
      "duration": 308,
      "default": true,
      "lyrics": [
        {
          "filename": "ENG - Cowboy Bebop - ED2 - Blue.ass",
          "default": true,
          "version": "Default"
        }
      ]
    }
  ],
  "data": {
    "created_at": "2020-08-27T18:26:27.745Z",
    "kid": "94c0537d-338a-4048-8861-2ae85a9d3714",
    "modified_at": "2022-07-20T11:37:24.766Z",
    "repository": "kara.moe",
    "songorder": 2,
    "tags": {
      "authors": [
        "5e93f02a-bcd1-40a9-ba7a-91ada6683aea"
      ],
      "creators": [
        "ef8f80e1-d244-4aea-b7f0-984d6dd4b82b"
      ],
      "families": [
        "0377db02-3af6-43b8-9b08-c759df3d25c3"
      ],
      "groups": [
        "24db50aa-a126-4d34-a48a-e45db79c4245"
      ],
      "langs": [
        "9020a9e0-ed66-43b0-b795-7ef67eecf676",
        "de5eda1c-5fb3-46a6-9606-d4554fc5a1d6"
      ],
      "misc": [
        "86705d4b-24e4-4756-9687-2b9c98bcf366"
      ],
      "origins": [
        "938de218-5343-4865-94d3-fb33f2eaa152"
      ],
      "series": [
        "3fb73793-f9b4-431f-ba13-3e1fa28c805e"
      ],
      "singers": [
        "54000730-0779-445e-b865-bf6cf2175579",
        "5553755a-867b-4f4e-b554-e80db93daa19"
      ],
      "songtypes": [
        "38c77c56-2b95-4040-b676-0994a8cb0597"
      ],
      "songwriters": [
        "af0be06d-ea2d-4f46-85d1-58cf9f42532a"
      ],
      "collections": [
        "c7db86a0-ff64-4044-9be4-66dd1ef1d1c1"
      ],
      "warnings": [
        "24371984-5e4c-4485-a937-fb0c480ca23b"
      ],
      "franchises": [
        "3fb73793-f9b4-431f-ba13-3e1fa28c805e"
      ]
    },
    "titles": {
      "eng": "Blue"
    },
    "titles_default_language": "eng",
    "title": "Blue",
    "year": 1998
  }
}