{
  "header": {
    "version": 4,
    "description": "Karaoke Mugen Karaoke Data File"
  },
  "medias": [
    {
      "version": "Default",
      "filename": "ENG - Synduality Noir - OP - RAYTRACER.mp4",
      "loudnorm": "-17.85,-7.31,4.70,-27.87,-1.23",
      "filesize": 51804950,
      "duration": 89,
      "default": true,
      "lyrics": [
        {
          "filename": "ENG - Synduality Noir - OP - RAYTRACER.ass",
          "default": true,
          "version": "Default"
        }
      ]
    }
  ],
  "data": {
    "created_at": "2024-04-02T01:39:55.780Z",
    "ignoreHooks": false,
    "kid": "59a61d65-7f29-48f0-aba9-eef4f3e4c902",
    "modified_at": "2024-04-16T09:05:41.569Z",
    "repository": "kara.moe",
    "tags": {
      "authors": [
        "c09cec89-ee7d-4471-91bf-27a4c742ad05"
      ],
      "collections": [
        "c7db86a0-ff64-4044-9be4-66dd1ef1d1c1"
      ],
      "creators": [
        "126e5cf8-763f-43e2-9b09-8a30b586f256"
      ],
      "families": [
        "0377db02-3af6-43b8-9b08-c759df3d25c3"
      ],
      "genres": [
        "f60ba57d-5ef4-49e0-b93b-d0dcbcff6592"
      ],
      "groups": [
        "8e209ae4-4381-438f-89dc-1b21752027d2",
        "966d1e74-d1f2-41e2-ab04-24279c22f562"
      ],
      "langs": [
        "4dcf9614-7914-42aa-99f4-dbce2e059133",
        "de5eda1c-5fb3-46a6-9606-d4554fc5a1d6"
      ],
      "misc": [
        "fe819ff1-9db8-4a0f-85dc-0e322c9126c4"
      ],
      "origins": [
        "938de218-5343-4865-94d3-fb33f2eaa152"
      ],
      "series": [
        "206774a2-08d1-412e-94ea-6f8b73cbbd6a"
      ],
      "singers": [
        "541dfaab-a9d7-4bc3-b138-48128c089890"
      ],
      "songtypes": [
        "f02ad9b3-0bd9-4aad-85b3-9976739ba0e4"
      ],
      "songwriters": [
        "c5a951cb-53d8-4472-ac1d-9f31a38fdb2f"
      ],
      "franchises": [
        "206774a2-08d1-412e-94ea-6f8b73cbbd6a"
      ]
    },
    "titles": {
      "eng": "RAYTRACER"
    },
    "titles_default_language": "eng",
    "year": 2023
  }
}