{
  "header": {
    "version": 4,
    "description": "Karaoke Mugen Karaoke Data File"
  },
  "medias": [
    {
      "version": "Default",
      "filename": "ENG - High Card - OP - Trickster.mp4",
      "audiogain": -0.55,
      "loudnorm": "-16.00,-6.33,3.70,-26.02,-0.57",
      "filesize": 40158327,
      "duration": 90,
      "default": true,
      "lyrics": [
        {
          "filename": "ENG - High Card - OP - Trickster.ass",
          "default": true,
          "version": "Default"
        }
      ]
    }
  ],
  "data": {
    "created_at": "2023-06-30T22:03:39.232Z",
    "ignoreHooks": false,
    "kid": "33d06f7a-95cb-4d5c-b545-46f390bf40c8",
    "modified_at": "2023-06-30T22:06:37.248Z",
    "repository": "kara.moe",
    "tags": {
      "authors": [
        "da677ad5-b5dd-4ab9-a1fe-5461e36338a2"
      ],
      "collections": [
        "c7db86a0-ff64-4044-9be4-66dd1ef1d1c1"
      ],
      "creators": [
        "875713d0-9b1c-4743-b0f9-0752715ddd5a"
      ],
      "families": [
        "0377db02-3af6-43b8-9b08-c759df3d25c3"
      ],
      "groups": [
        "8e209ae4-4381-438f-89dc-1b21752027d2"
      ],
      "langs": [
        "4dcf9614-7914-42aa-99f4-dbce2e059133",
        "de5eda1c-5fb3-46a6-9606-d4554fc5a1d6"
      ],
      "origins": [
        "938de218-5343-4865-94d3-fb33f2eaa152"
      ],
      "series": [
        "8b397f59-d692-4ceb-8d95-1611abfa6c23"
      ],
      "singers": [
        "05491cfe-0339-489a-be4a-4889d87bb264"
      ],
      "singergroups": [
        "a84decd3-5d9b-41d6-9147-1caf758618bc"
      ],
      "songtypes": [
        "f02ad9b3-0bd9-4aad-85b3-9976739ba0e4"
      ],
      "songwriters": [
        "05491cfe-0339-489a-be4a-4889d87bb264",
        "39c85c9f-51ae-413f-bbf0-eee52071758e"
      ]
    },
    "titles": {
      "eng": "Trickster"
    },
    "titles_default_language": "eng",
    "year": 2023
  }
}