{
  "header": {
    "version": 4,
    "description": "Karaoke Mugen Karaoke Data File"
  },
  "medias": [
    {
      "version": "Default",
      "filename": "ENG - GUMI, Miku Hatsune - MV - GETCHA!.mp4",
      "audiogain": -11.02,
      "loudnorm": "-5.20,2.73,3.40,-15.26,-0.49",
      "filesize": 104697702,
      "duration": 229,
      "default": true,
      "lyrics": [
        {
          "filename": "ENG - GUMI, Miku Hatsune - MV - GETCHA!.ass",
          "default": true,
          "version": "Default"
        }
      ]
    }
  ],
  "data": {
    "created_at": "2022-03-06T00:38:07.986Z",
    "ignoreHooks": false,
    "kid": "28f415da-fb08-4b23-8c38-5b0ea8166055",
    "modified_at": "2023-02-05T12:41:33.236Z",
    "repository": "kara.moe",
    "tags": {
      "authors": [
        "4b50fcec-273e-4cc5-83f2-b156c2300f7f"
      ],
      "collections": [
        "c7db86a0-ff64-4044-9be4-66dd1ef1d1c1"
      ],
      "families": [
        "0377db02-3af6-43b8-9b08-c759df3d25c3"
      ],
      "genres": [
        "45623cae-6d68-4304-a49b-896d1d6f4580"
      ],
      "groups": [
        "8e209ae4-4381-438f-89dc-1b21752027d2"
      ],
      "langs": [
        "4dcf9614-7914-42aa-99f4-dbce2e059133",
        "de5eda1c-5fb3-46a6-9606-d4554fc5a1d6"
      ],
      "misc": [
        "1d6ceadf-a885-47e5-b23b-c07bf668a424"
      ],
      "singers": [
        "4407ba0e-5de7-4add-870f-7ac95a4804c9",
        "dafdeefa-0a96-44df-9653-aeb88c400e33"
      ],
      "songtypes": [
        "7be1b15c-cff8-4b37-a649-5c90f3d569a9"
      ],
      "songwriters": [
        "ad7ea241-f3eb-4919-a182-166d52fc72c5",
        "ff1aec1d-751a-40ff-bbff-a3f0fd5e9749"
      ]
    },
    "titles": {
      "qro": "GETCHA!"
    },
    "titles_default_language": "qro",
    "year": 2020
  }
}