{
  "header": {
    "version": 4,
    "description": "Karaoke Mugen Karaoke Data File"
  },
  "medias": [
    {
      "lyrics": [
        {
          "default": true,
          "version": "Default",
          "filename": "ENG - Mori Calliope, Watame Tsunomaki - MV - Cloudy Sheep.ass"
        }
      ],
      "default": true,
      "version": "Default",
      "duration": 245,
      "filename": "ENG - Mori Calliope, Watame Tsunomaki - MV - Cloudy Sheep.mp4",
      "filesize": 219147457,
      "loudnorm": "-8.93,0.75,5.80,-19.00,-1.23",
      "audiogain": -9.15
    }
  ],
  "data": {
    "kid": "acf96620-0d8b-4058-beb1-f83c995ac02d",
    "tags": {
      "authors": [
        "2c1f4c76-4de9-4548-9aa5-bc64ab296076",
        "4b50fcec-273e-4cc5-83f2-b156c2300f7f"
      ],
      "collections": [
        "c7db86a0-ff64-4044-9be4-66dd1ef1d1c1"
      ],
      "creators": [
        "0263d413-17bb-4cee-a311-6dd896eda1c9"
      ],
      "families": [
        "0377db02-3af6-43b8-9b08-c759df3d25c3"
      ],
      "langs": [
        "4dcf9614-7914-42aa-99f4-dbce2e059133",
        "de5eda1c-5fb3-46a6-9606-d4554fc5a1d6"
      ],
      "misc": [
        "1d6ceadf-a885-47e5-b23b-c07bf668a424"
      ],
      "origins": [
        "5106d71b-a78e-4d19-a16d-f8fb6719538a"
      ],
      "singers": [
        "b68441b5-bc17-4975-a825-d5c35b50bcf8",
        "c4cd517c-9219-4757-9d66-0ffb56c754f9"
      ],
      "songtypes": [
        "7be1b15c-cff8-4b37-a649-5c90f3d569a9"
      ],
      "songwriters": [
        "9eb3e969-0618-4118-b20f-3ee63b15c448"
      ]
    },
    "year": 2020,
    "title": "Cloudy Sheep",
    "titles": {
      "eng": "Cloudy Sheep",
      "qro": "Donten Hitsuji",
      "jpn": "曇天羊"
    },
    "created_at": "2022-01-04T14:18:56.234Z",
    "repository": "kara.moe",
    "modified_at": "2022-01-04T14:23:14.226Z",
    "titles_default_language": "eng"
  }
}