{
  "header": {
    "version": 4,
    "description": "Karaoke Mugen Karaoke Data File"
  },
  "medias": [
    {
      "version": "Hololive.",
      "filename": "ENG - League of Legends - MV - K DA - THE BADDEST ~ Hololive Vers. ~ Cover Vers.mp4",
      "audiogain": -5.98,
      "loudnorm": "-11.28,0.34,7.00,-21.60,0.14",
      "filesize": 64514928,
      "duration": 202,
      "default": true,
      "lyrics": [
        {
          "filename": "ENG - League of Legends - MV - K DA - THE BADDEST ~ Hololive Vers. ~ Cover Vers.ass",
          "default": true,
          "version": "Default"
        }
      ]
    }
  ],
  "data": {
    "created_at": "2022-01-07T19:10:18.134Z",
    "ignoreHooks": false,
    "kid": "ff37b201-aac2-47c0-86c1-78601a71d18e",
    "modified_at": "2023-04-30T12:11:46.274Z",
    "parents": [
      "4a6e2d27-1ed9-4464-b72a-6588f6add87e"
    ],
    "repository": "kara.moe",
    "tags": {
      "authors": [
        "5690b59e-e9d1-4384-8a50-f0ff04996dfb",
        "8605a8b9-3b45-44b9-9d98-1a25096bf702"
      ],
      "collections": [
        "c7db86a0-ff64-4044-9be4-66dd1ef1d1c1"
      ],
      "creators": [
        "0263d413-17bb-4cee-a311-6dd896eda1c9"
      ],
      "families": [
        "0377db02-3af6-43b8-9b08-c759df3d25c3"
      ],
      "groups": [
        "8e209ae4-4381-438f-89dc-1b21752027d2"
      ],
      "langs": [
        "3b9e2749-27d0-4a78-873d-ea91a9ee9a25",
        "de5eda1c-5fb3-46a6-9606-d4554fc5a1d6"
      ],
      "origins": [
        "5106d71b-a78e-4d19-a16d-f8fb6719538a"
      ],
      "series": [
        "f76f47b0-f820-454f-8cc5-2ec0bf5b3d28"
      ],
      "singers": [
        "0c70150b-cccd-4f24-b684-041f1163bede",
        "447f0420-6b9b-4bf3-958e-62a70e4ac30c",
        "c4cd517c-9219-4757-9d66-0ffb56c754f9",
        "f708c8c5-9078-48f2-9197-28926d5c2aef"
      ],
      "songtypes": [
        "7be1b15c-cff8-4b37-a649-5c90f3d569a9"
      ],
      "songwriters": [
        "04abdffe-8b06-4350-b521-8a5789a75890",
        "5092adbb-0292-47be-bf28-dc0b20025086"
      ],
      "versions": [
        "03e1e1d2-8641-47b7-bbcb-39a3df9ff21c"
      ],
      "franchises": [
        "f76f47b0-f820-454f-8cc5-2ec0bf5b3d28"
      ]
    },
    "titles": {
      "eng": "K/DA - THE BADDEST ~ Hololive Vers."
    },
    "titles_default_language": "eng",
    "titles_aliases": [
      "kda"
    ],
    "year": 2021
  }
}