{
  "header": {
    "version": 4,
    "description": "Karaoke Mugen Karaoke Data File"
  },
  "medias": [
    {
      "version": "Default",
      "filename": "FRE - Cardcaptor Sakura - OP2 - Razzmatazz.mp4",
      "audiogain": -4.61,
      "loudnorm": "-12.68,-1.10,2.00,-23.04,-0.19",
      "filesize": 15071796,
      "duration": 45,
      "default": true,
      "lyrics": [
        {
          "filename": "FRE - Cardcaptor Sakura - OP2 - Razzmatazz.ass",
          "default": true,
          "version": "Default"
        }
      ]
    }
  ],
  "data": {
    "created_at": "2017-10-11T21:02:44.000Z",
    "ignoreHooks": false,
    "kid": "c9c4ca39-e34a-4eb1-af6e-e32c704769bb",
    "modified_at": "2022-03-24T07:53:44.327Z",
    "repository": "kara.moe",
    "songorder": 2,
    "tags": {
      "authors": [
        "fa399f2f-ea1d-4902-8796-ea6d8218aff0"
      ],
      "collections": [
        "c7db86a0-ff64-4044-9be4-66dd1ef1d1c1"
      ],
      "creators": [
        "9c5cf6ba-0bc8-4cfe-a63c-e9be3a14e9fd"
      ],
      "families": [
        "0377db02-3af6-43b8-9b08-c759df3d25c3"
      ],
      "groups": [
        "3c14c864-533c-49e6-a3cc-6969f1233775",
        "f5e7d2fc-0cbb-4fb9-a84a-b25dfb0e9e77"
      ],
      "langs": [
        "fd8072b7-4d9b-45d4-8f5b-a931a830edef"
      ],
      "misc": [
        "fe819ff1-9db8-4a0f-85dc-0e322c9126c4"
      ],
      "origins": [
        "938de218-5343-4865-94d3-fb33f2eaa152"
      ],
      "series": [
        "e18e6f53-efcc-4f1c-8919-eef475ae4af6"
      ],
      "singers": [
        "01dd89e2-2bd0-4fb5-8d0c-44d6ae9ef7d7"
      ],
      "songtypes": [
        "f02ad9b3-0bd9-4aad-85b3-9976739ba0e4"
      ],
      "songwriters": [
        "a61af715-e24c-4e16-bcb7-0462d05f6b8a",
        "c1d4304a-7820-459e-86df-7aa4b8481425"
      ],
      "franchises": [
        "e18e6f53-efcc-4f1c-8919-eef475ae4af6"
      ]
    },
    "titles": {
      "fre": "Razzmatazz"
    },
    "titles_default_language": "fre",
    "title": "Razzmatazz",
    "year": 2001
  }
}