{
  "header": {
    "version": 4,
    "description": "Karaoke Mugen Karaoke Data File"
  },
  "medias": [
    {
      "version": "Default",
      "filename": "FRE - DuckTales (1987) - OP - La Bande a Picsou.mp4",
      "audiogain": -13.62,
      "loudnorm": "-5.31,1.13,2.60,-15.40,-0.63",
      "filesize": 3049069,
      "duration": 58,
      "default": true,
      "lyrics": [
        {
          "filename": "FRE - DuckTales (1987) - OP - La Bande a Picsou.ass",
          "default": true,
          "version": "Default",
          "subchecksum": "ee7d5c32d2aaef7e6a9e1501924f0ba3"
        }
      ]
    }
  ],
  "data": {
    "created_at": "2017-10-11T17:01:30.000Z",
    "kid": "7a01ec31-1797-47b9-8749-ffec533a7a66",
    "modified_at": "2021-02-25T10:22:43.734Z",
    "parents": [
      "1d2d9580-1ad7-4bf1-a02f-17cef7a546e7"
    ],
    "repository": "kara.moe",
    "tags": {
      "authors": [
        "6bebcb04-2694-453c-9e0c-eb1a2e2718d9"
      ],
      "collections": [
        "c7db86a0-ff64-4044-9be4-66dd1ef1d1c1"
      ],
      "creators": [
        "759b9ba3-035c-4bbe-9e0f-e35c6dc2ab5a"
      ],
      "families": [
        "0377db02-3af6-43b8-9b08-c759df3d25c3"
      ],
      "groups": [
        "7792cc27-9ff9-4d47-9287-2338b7db1575",
        "f5e7d2fc-0cbb-4fb9-a84a-b25dfb0e9e77"
      ],
      "langs": [
        "fd8072b7-4d9b-45d4-8f5b-a931a830edef"
      ],
      "origins": [
        "938de218-5343-4865-94d3-fb33f2eaa152"
      ],
      "series": [
        "47d21601-221b-4e27-b591-3033e7db806c"
      ],
      "singers": [
        "c62918de-0d8c-4b1d-a6b7-6b96d1b1f127"
      ],
      "songtypes": [
        "f02ad9b3-0bd9-4aad-85b3-9976739ba0e4"
      ],
      "songwriters": [
        "317bd3d1-b19c-437a-ba69-b1468e08f580"
      ],
      "franchises": [
        "5f8a7872-5420-41a9-89ac-95904f8cfcef"
      ]
    },
    "title": "La Bande à Picsou",
    "titles": {
      "eng": "La Bande à Picsou"
    },
    "year": 1987
  }
}