{
  "header": {
    "version": 4,
    "description": "Karaoke Mugen Karaoke Data File"
  },
  "medias": [
    {
      "version": "Default",
      "filename": "JPN - Tegami Bachi ~Reverse~ - ED2 - Perseus.mp4",
      "audiogain": -1.13,
      "loudnorm": "-16.02,-6.95,3.70,-26.11,-0.63",
      "filesize": 14030450,
      "duration": 92,
      "default": true,
      "lyrics": [
        {
          "filename": "JPN - Tegami Bachi ~Reverse~ - ED2 - Perseus.ass",
          "default": true,
          "version": "Default",
          "subchecksum": "cd5e5d6787c84b0ca7db8f13a47e1b4c"
        }
      ]
    }
  ],
  "data": {
    "created_at": "2021-03-07T23:27:54.970Z",
    "kid": "38737fce-8c6c-4765-9bec-547fc483ad0a",
    "modified_at": "2021-03-07T23:32:05.638Z",
    "repository": "kara.moe",
    "songorder": 2,
    "tags": {
      "authors": [
        "8605a8b9-3b45-44b9-9d98-1a25096bf702"
      ],
      "collections": [
        "c7db86a0-ff64-4044-9be4-66dd1ef1d1c1"
      ],
      "creators": [
        "aaff4ba6-9a12-4bac-9bd0-c0cb783e4177"
      ],
      "families": [
        "0377db02-3af6-43b8-9b08-c759df3d25c3"
      ],
      "groups": [
        "ae613721-1fbe-480d-ba6b-d6d0702b184d"
      ],
      "langs": [
        "4dcf9614-7914-42aa-99f4-dbce2e059133"
      ],
      "origins": [
        "938de218-5343-4865-94d3-fb33f2eaa152"
      ],
      "series": [
        "baa543a3-59a4-458d-b166-d3f5087fb432"
      ],
      "singers": [
        "ffc12c83-ffd1-4c42-8980-cd5853c60b0e"
      ],
      "songtypes": [
        "38c77c56-2b95-4040-b676-0994a8cb0597"
      ],
      "songwriters": [
        "047df61f-fde1-41a0-aadf-f16ccf44d46d",
        "ffc12c83-ffd1-4c42-8980-cd5853c60b0e"
      ],
      "franchises": [
        "d44bda77-558b-4d17-93fd-afd43719c588"
      ]
    },
    "title": "Perseus",
    "titles": {
      "eng": "Perseus",
      "jpn": "ペルセウス"
    },
    "year": 2011,
    "titles_default_language": "eng"
  }
}