{
  "header": {
    "version": 4,
    "description": "Karaoke Mugen Karaoke Data File"
  },
  "medias": [
    {
      "version": "Default",
      "filename": "JPN - Miku Hatsune - MV - Love Is War ~ Off Vocal Vers.mp4",
      "audiogain": -8.7,
      "loudnorm": "-9.26,2.16,7.00,-19.51,-0.72",
      "filesize": 21702873,
      "duration": 237,
      "default": true,
      "lyrics": [
        {
          "filename": "JPN - Miku Hatsune - MV - Love Is War ~ Off Vocal Vers.ass",
          "default": true,
          "version": "Default"
        }
      ]
    }
  ],
  "data": {
    "created_at": "2023-07-13T03:33:08.149Z",
    "ignoreHooks": false,
    "kid": "a7a65818-f3c9-40a0-9c47-f6bc165ebdbe",
    "modified_at": "2023-07-13T03:33:08.230Z",
    "parents": [
      "0e4b8aca-fd4f-4cac-a9ee-93da0007cd3b"
    ],
    "repository": "kara.moe",
    "tags": {
      "authors": [
        "fa399f2f-ea1d-4902-8796-ea6d8218aff0"
      ],
      "collections": [
        "c7db86a0-ff64-4044-9be4-66dd1ef1d1c1"
      ],
      "creators": [
        "c76fa0e1-34d3-400d-98e8-799bfbce6c9c"
      ],
      "families": [
        "0377db02-3af6-43b8-9b08-c759df3d25c3"
      ],
      "genres": [
        "45623cae-6d68-4304-a49b-896d1d6f4580"
      ],
      "groups": [
        "3c14c864-533c-49e6-a3cc-6969f1233775"
      ],
      "langs": [
        "4dcf9614-7914-42aa-99f4-dbce2e059133"
      ],
      "singers": [
        "4407ba0e-5de7-4add-870f-7ac95a4804c9"
      ],
      "songtypes": [
        "7be1b15c-cff8-4b37-a649-5c90f3d569a9"
      ],
      "songwriters": [
        "b269bf90-79fc-4167-a78d-e22328df4ee0"
      ],
      "versions": [
        "c0cc87b9-55b9-40f0-878a-fbb9e34c151e"
      ]
    },
    "titles": {
      "eng": "Love Is War",
      "jpn": "恋は戦争",
      "qro": "Koi wa Sensô"
    },
    "titles_default_language": "eng",
    "titles_aliases": [
      "EAGER LOVE REVENGE",
      "Sensou"
    ],
    "year": 2008
  }
}