{
  "header": {
    "version": 4,
    "description": "Karaoke Mugen Karaoke Data File"
  },
  "medias": [
    {
      "version": "Default",
      "filename": "JPN - SOUND HOLIC - MV - FIRE FLOWER.mp4",
      "loudnorm": "-7.33,1.35,2.00,-17.38,-0.26",
      "filesize": 107656371,
      "duration": 263,
      "default": true,
      "lyrics": [
        {
          "filename": "JPN - SOUND HOLIC - MV - FIRE FLOWER.ass",
          "default": true,
          "version": "Default"
        }
      ]
    }
  ],
  "data": {
    "created_at": "2017-10-11T17:01:29.000Z",
    "ignoreHooks": false,
    "kid": "45ecb815-af85-4224-8a0b-cbde4d1f292c",
    "modified_at": "2024-03-29T20:30:34.165Z",
    "repository": "kara.moe",
    "tags": {
      "authors": [
        "5bdaba57-27f8-4568-8806-76a807728766"
      ],
      "collections": [
        "c7db86a0-ff64-4044-9be4-66dd1ef1d1c1"
      ],
      "creators": [
        "a56ed9e7-a3dc-4203-b91c-4128bcf7bfa9",
        "ca654b25-30b5-4054-a2c0-35028fdcae22"
      ],
      "families": [
        "0377db02-3af6-43b8-9b08-c759df3d25c3"
      ],
      "groups": [
        "ae613721-1fbe-480d-ba6b-d6d0702b184d"
      ],
      "langs": [
        "4dcf9614-7914-42aa-99f4-dbce2e059133"
      ],
      "singers": [
        "7339f837-69b2-4b50-b2e6-a77c5061c563"
      ],
      "singergroups": [
        "ca654b25-30b5-4054-a2c0-35028fdcae22"
      ],
      "songtypes": [
        "7be1b15c-cff8-4b37-a649-5c90f3d569a9"
      ],
      "songwriters": [
        "23351848-e3cc-4420-b564-db2bfe2b7f3d",
        "26cb5252-8510-49e0-897c-a611a05fc056",
        "7339f837-69b2-4b50-b2e6-a77c5061c563"
      ],
      "franchises": [
        "1bdaa5a1-dfa6-4365-b746-7a0b194dafd6"
      ]
    },
    "titles": {
      "eng": "FIRE FLOWER"
    },
    "titles_default_language": "eng",
    "year": 2010
  }
}