{
  "header": {
    "version": 4,
    "description": "Karaoke Mugen Karaoke Data File"
  },
  "medias": [
    {
      "version": "Default",
      "filename": "JPN - Ookami to Koushinryou MERCHANT MEETS THE WISE WOLF - OP - Tabi no Yukue.webm",
      "loudnorm": "-22.66,-13.39,7.80,-33.11,-1.37",
      "filesize": 22996087,
      "duration": 90,
      "default": true,
      "lyrics": [
        {
          "filename": "JPN - Ookami to Koushinryou MERCHANT MEETS THE WISE WOLF - OP - Tabi no Yukue.ass",
          "default": true,
          "version": "Default"
        }
      ]
    }
  ],
  "data": {
    "created_at": "2024-04-02T01:24:50.678Z",
    "ignoreHooks": false,
    "kid": "3d676e08-dad7-4b56-8bce-0c00a19941e4",
    "modified_at": "2024-04-09T16:01:01.945Z",
    "repository": "kara.moe",
    "tags": {
      "authors": [
        "7848b5dc-a5df-4577-b640-147be5288cec"
      ],
      "collections": [
        "c7db86a0-ff64-4044-9be4-66dd1ef1d1c1"
      ],
      "creators": [
        "d0d3eef5-23de-46d2-9c0a-6323793395ae"
      ],
      "families": [
        "0377db02-3af6-43b8-9b08-c759df3d25c3"
      ],
      "groups": [
        "8e209ae4-4381-438f-89dc-1b21752027d2"
      ],
      "langs": [
        "4dcf9614-7914-42aa-99f4-dbce2e059133"
      ],
      "misc": [
        "fe819ff1-9db8-4a0f-85dc-0e322c9126c4"
      ],
      "origins": [
        "938de218-5343-4865-94d3-fb33f2eaa152"
      ],
      "series": [
        "044e19fd-f896-42ab-b559-429c5d72b749"
      ],
      "singers": [
        "72ad1cb7-0e8a-4293-b3a9-9e2024c5af71"
      ],
      "songtypes": [
        "f02ad9b3-0bd9-4aad-85b3-9976739ba0e4"
      ],
      "songwriters": [
        "28fda933-ac02-4754-95b8-a2c80bb15937",
        "37183cbd-77d8-4c83-9778-3e98bba16d68",
        "6df5f31a-ac61-4797-8399-865fe9bd7386"
      ],
      "franchises": [
        "95925674-a1b6-44d2-8710-c64961f5d700"
      ]
    },
    "titles": {
      "eng": "Destination of the journey",
      "jpn": "旅のゆくえ",
      "qro": "Tabi no Yukue"
    },
    "titles_default_language": "qro",
    "year": 2024
  }
}