{
  "header": {
    "version": 4,
    "description": "Karaoke Mugen Karaoke Data File"
  },
  "medias": [
    {
      "version": "Default",
      "filename": "JPN - Renkin San-Kyuu Magical Pokaan - OP - Senketsu no Chikai.mp4",
      "audiogain": -4.88,
      "loudnorm": "-12.81,0.12,4.50,-22.88,-0.69",
      "filesize": 23077249,
      "duration": 90,
      "default": true,
      "lyrics": [
        {
          "filename": "JPN - Renkin San-Kyuu Magical Pokaan - OP - Senketsu no Chikai.ass",
          "default": true,
          "version": "Default",
          "subchecksum": "70aeccce0688f163af18566654d7c312"
        }
      ]
    }
  ],
  "data": {
    "created_at": "2017-10-11T17:02:43.000Z",
    "kid": "d43e943d-3bea-439d-a5f3-f97628aa0fe5",
    "modified_at": "2021-02-25T12:50:59.453Z",
    "repository": "kara.moe",
    "tags": {
      "authors": [
        "5bdaba57-27f8-4568-8806-76a807728766"
      ],
      "collections": [
        "c7db86a0-ff64-4044-9be4-66dd1ef1d1c1"
      ],
      "creators": [
        "74f549e0-7d9f-4cdb-a64a-1058a62b2019"
      ],
      "families": [
        "0377db02-3af6-43b8-9b08-c759df3d25c3"
      ],
      "groups": [
        "3c14c864-533c-49e6-a3cc-6969f1233775"
      ],
      "langs": [
        "4dcf9614-7914-42aa-99f4-dbce2e059133"
      ],
      "misc": [
        "fe819ff1-9db8-4a0f-85dc-0e322c9126c4"
      ],
      "origins": [
        "938de218-5343-4865-94d3-fb33f2eaa152"
      ],
      "series": [
        "dde1c137-9c8c-4f5e-b251-73ade5b3e690"
      ],
      "singers": [
        "372bb93f-bb44-40f1-b7ae-ae4ede520d9f"
      ],
      "songtypes": [
        "f02ad9b3-0bd9-4aad-85b3-9976739ba0e4"
      ],
      "songwriters": [
        "1c535341-c54a-42f7-a3c4-094a1ed50c6c"
      ]
    },
    "title": "Senketsu no Chikai",
    "titles": {
      "qro": "Senketsu no Chikai",
      "jpn": "鮮血の誓い"
    },
    "year": 2006,
    "titles_default_language": "qro"
  }
}