{
  "header": {
    "version": 4,
    "description": "Karaoke Mugen Karaoke Data File"
  },
  "medias": [
    {
      "version": "Ep 02.",
      "filename": "JPN - Ping Pong The Animation - OP - Tada Hitori ~ Ep 02 Vers. ~ Alternative Vers.mp4",
      "audiogain": 1.27,
      "loudnorm": "-18.37,-11.01,2.40,-28.43,-0.05",
      "filesize": 49903344,
      "duration": 90,
      "default": true,
      "lyrics": [
        {
          "filename": "JPN - Ping Pong The Animation - OP - Tada Hitori ~ Ep 02 Vers. ~ Alternative Vers.ass",
          "default": true,
          "version": "Default"
        }
      ]
    }
  ],
  "data": {
    "created_at": "2022-05-16T18:25:22.498Z",
    "ignoreHooks": false,
    "kid": "901a040a-075d-4eeb-9e1b-2b267bd936e6",
    "modified_at": "2022-09-19T14:05:16.207Z",
    "parents": [
      "9d29a637-c023-4713-8269-80e678891399"
    ],
    "repository": "kara.moe",
    "tags": {
      "authors": [
        "1df04771-a378-4f14-a5e1-1455187d681a"
      ],
      "collections": [
        "c7db86a0-ff64-4044-9be4-66dd1ef1d1c1"
      ],
      "creators": [
        "cfdb2d1e-499d-47a1-b9f8-070153b5048e"
      ],
      "families": [
        "0377db02-3af6-43b8-9b08-c759df3d25c3"
      ],
      "groups": [
        "33881a14-788e-4e2a-a97d-1e5f51542a26",
        "ae613721-1fbe-480d-ba6b-d6d0702b184d",
        "f53332f8-daed-4ac5-97c9-64239b520db0"
      ],
      "langs": [
        "4dcf9614-7914-42aa-99f4-dbce2e059133"
      ],
      "origins": [
        "938de218-5343-4865-94d3-fb33f2eaa152"
      ],
      "series": [
        "706ebe5e-1c90-4d18-8f36-902eb8865bf9"
      ],
      "singers": [
        "24c891ae-7699-46ac-9bd4-58fec0ae49b6"
      ],
      "songtypes": [
        "f02ad9b3-0bd9-4aad-85b3-9976739ba0e4"
      ],
      "songwriters": [
        "24c891ae-7699-46ac-9bd4-58fec0ae49b6"
      ],
      "versions": [
        "9f63c359-d1bf-425a-bcf5-b245c2c9211d"
      ]
    },
    "titles": {
      "jpn": "唯一人 ~ Ep 02 Vers.",
      "qro": "Tada Hitori ~ Ep 02 Vers."
    },
    "titles_default_language": "qro",
    "title": "Tada Hitori ~ Ep 02 Vers.",
    "year": 2014
  }
}