{
  "header": {
    "version": 4,
    "description": "Karaoke Mugen Karaoke Data File"
  },
  "medias": [
    {
      "version": "Default",
      "filename": "JPN - Wagaya no Oinari-sama - OP - Kizuna Haruka Naru Mono he.mp4",
      "audiogain": -1.07,
      "loudnorm": "-17.49,-7.47,3.30,-27.50,-0.99",
      "filesize": 25527091,
      "duration": 88,
      "default": true,
      "lyrics": [
        {
          "filename": "JPN - Wagaya no Oinari-sama - OP - Kizuna Haruka Naru Mono he.ass",
          "default": true,
          "version": "Default"
        }
      ]
    }
  ],
  "data": {
    "created_at": "2021-06-06T00:53:33.618Z",
    "ignoreHooks": false,
    "kid": "8f771f9f-6153-4c17-ae3e-aff864b5e5f9",
    "modified_at": "2022-10-14T21:54:22.122Z",
    "repository": "kara.moe",
    "tags": {
      "authors": [
        "1db1738f-acdc-42fc-aec3-60f4bddf660d"
      ],
      "collections": [
        "c7db86a0-ff64-4044-9be4-66dd1ef1d1c1"
      ],
      "creators": [
        "e898a827-3b74-4637-b57c-c40c8c2fc0cc"
      ],
      "families": [
        "0377db02-3af6-43b8-9b08-c759df3d25c3"
      ],
      "groups": [
        "3c14c864-533c-49e6-a3cc-6969f1233775"
      ],
      "langs": [
        "4dcf9614-7914-42aa-99f4-dbce2e059133"
      ],
      "origins": [
        "938de218-5343-4865-94d3-fb33f2eaa152"
      ],
      "series": [
        "d3e07ef4-ced6-4b15-bc97-69fd0be8a041"
      ],
      "singers": [
        "f6f98baa-ec19-4d39-ba0a-03ca38ee986f",
        "9faf6ac4-47c6-402c-b7b9-2707e63583c3"
      ],
      "songtypes": [
        "f02ad9b3-0bd9-4aad-85b3-9976739ba0e4"
      ],
      "songwriters": [
        "02a67ec5-6e52-4917-a234-f77db85d018c",
        "b2042519-5c31-4984-9085-738fc92f304f"
      ]
    },
    "titles": {
      "jpn": "KI-ZU-NA~遥かなる者へ",
      "qro": "Kizuna: Haruka Naru Mono he"
    },
    "titles_default_language": "qro",
    "title": "Kizuna: Haruka Naru Mono he",
    "year": 2008
  }
}