{
  "header": {
    "version": 4,
    "description": "Karaoke Mugen Karaoke Data File"
  },
  "medias": [
    {
      "version": "Default",
      "filename": "JPN - Love Live! Nijigasaki Gakuen School Idol Doukoukai - LIVE - Eieisa.mp4",
      "loudnorm": "-7.50,1.75,2.50,-17.57,-0.19",
      "filesize": 243759625,
      "duration": 260,
      "default": true,
      "lyrics": [
        {
          "filename": "JPN - Love Live! Nijigasaki Gakuen School Idol Doukoukai - LIVE - Eieisa.ass",
          "default": true,
          "version": "Default"
        }
      ]
    }
  ],
  "data": {
    "created_at": "2023-06-27T22:19:42.715Z",
    "ignoreHooks": false,
    "kid": "10e9f5fc-faf3-4b50-ac16-ed28043e594e",
    "modified_at": "2024-05-18T22:23:04.559Z",
    "repository": "kara.moe",
    "tags": {
      "authors": [
        "16b136eb-921f-4c07-be38-ff92d5cc4313"
      ],
      "collections": [
        "c7db86a0-ff64-4044-9be4-66dd1ef1d1c1",
        "dbcf2c22-524d-4708-99bb-601703633927"
      ],
      "families": [
        "5391f9fe-638c-415f-8dc9-958e3a2c5787"
      ],
      "genres": [
        "caa86df2-0d59-474b-885c-f240a9e891b0"
      ],
      "groups": [
        "8e209ae4-4381-438f-89dc-1b21752027d2"
      ],
      "langs": [
        "4dcf9614-7914-42aa-99f4-dbce2e059133"
      ],
      "series": [
        "9609e3a6-60db-412a-9d81-e9d9d2e0fb79"
      ],
      "singers": [
        "747cd011-3914-4212-9079-0da3dd845831"
      ],
      "singergroups": [
        "425f6083-f574-451a-b719-1257f1d38957"
      ],
      "songtypes": [
        "a0167949-580c-4de3-bf13-497e462e02f3"
      ],
      "songwriters": [
        "306846ad-5bae-4ad1-8f15-9902afb6104e",
        "5405b648-17c3-427b-9f7f-391712ab1140",
        "de7d73c7-bfa3-40d0-9d68-5293882c21dd"
      ],
      "franchises": [
        "fd5d066e-e85a-4eea-8688-2979a887450a"
      ]
    },
    "titles": {
      "qro": "Eieisa"
    },
    "titles_default_language": "qro",
    "year": 2022
  }
}