{
  "header": {
    "version": 4,
    "description": "Karaoke Mugen Karaoke Data File"
  },
  "medias": [
    {
      "version": "Animetal.",
      "filename": "JPN - Yoroshiku Mechadoc - AMV - Yoroshiku Tuning ~ Animetal Vers. ~ Cover Metal Vers.mp4",
      "audiogain": -9.49,
      "loudnorm": "-7.22,1.02,1.60,-17.25,-0.13",
      "filesize": 17923758,
      "duration": 71,
      "default": true,
      "lyrics": [
        {
          "filename": "JPN - Yoroshiku Mechadoc - AMV - Yoroshiku Tuning ~ Animetal Vers. ~ Cover Metal Vers.ass",
          "default": true,
          "version": "Default"
        }
      ]
    }
  ],
  "data": {
    "created_at": "2017-10-11T17:01:22.000Z",
    "ignoreHooks": false,
    "kid": "6c81a4bc-8305-4efb-bd49-022683a95e4d",
    "modified_at": "2022-01-21T18:28:15.394Z",
    "parents": [
      "e15889ab-798f-4e18-84f4-73704758761a"
    ],
    "repository": "kara.moe",
    "tags": {
      "authors": [
        "dcbca6be-d3ce-4e78-9f54-1ef02e3a1a0e"
      ],
      "collections": [
        "c7db86a0-ff64-4044-9be4-66dd1ef1d1c1"
      ],
      "creators": [
        "45104927-faca-4568-9996-6b24671be711"
      ],
      "families": [
        "0377db02-3af6-43b8-9b08-c759df3d25c3"
      ],
      "groups": [
        "3c14c864-533c-49e6-a3cc-6969f1233775"
      ],
      "langs": [
        "4dcf9614-7914-42aa-99f4-dbce2e059133"
      ],
      "origins": [
        "938de218-5343-4865-94d3-fb33f2eaa152"
      ],
      "series": [
        "fe2e3765-361b-49b2-80b7-5e613a063e12"
      ],
      "singers": [
        "45104927-faca-4568-9996-6b24671be711"
      ],
      "songtypes": [
        "a6c79ce5-89ee-4d50-afe8-3abd7317f6c2"
      ],
      "songwriters": [
        "1e3b846e-29ce-4b61-81aa-1f506d773055",
        "45104927-faca-4568-9996-6b24671be711",
        "f4d17203-598d-46a4-9e52-e404e32fea29"
      ],
      "versions": [
        "03e1e1d2-8641-47b7-bbcb-39a3df9ff21c",
        "188a5c46-63ff-4e9f-89e4-763468b6ea4a"
      ]
    },
    "titles": {
      "qro": "Yoroshiku Tuning ~ Animetal Vers.",
      "jpn": "よろしくチューニング ~ Animetal Vers."
    },
    "title": "Yoroshiku Tuning ~ Animetal Vers.",
    "year": 2003,
    "titles_default_language": "qro"
  }
}