{
  "header": {
    "version": 4,
    "description": "Karaoke Mugen Karaoke Data File"
  },
  "medias": [
    {
      "version": "Default",
      "filename": "JPN - Watame Tsunomaki - MV - Holidays!.mp4",
      "audiogain": -6.61,
      "loudnorm": "-11.49,1.98,11.90,-21.93,-0.85",
      "filesize": 291712314,
      "duration": 300,
      "default": true,
      "lyrics": [
        {
          "filename": "JPN - Watame Tsunomaki - MV - Holidays!.ass",
          "default": true,
          "version": "Default"
        }
      ]
    }
  ],
  "data": {
    "created_at": "2022-04-17T21:26:42.410Z",
    "ignoreHooks": false,
    "kid": "8b460262-65c0-4f26-82b2-080685cd7d78",
    "modified_at": "2022-04-17T21:27:03.145Z",
    "repository": "kara.moe",
    "tags": {
      "authors": [
        "4b50fcec-273e-4cc5-83f2-b156c2300f7f"
      ],
      "collections": [
        "c7db86a0-ff64-4044-9be4-66dd1ef1d1c1"
      ],
      "creators": [
        "0263d413-17bb-4cee-a311-6dd896eda1c9"
      ],
      "families": [
        "0377db02-3af6-43b8-9b08-c759df3d25c3"
      ],
      "langs": [
        "4dcf9614-7914-42aa-99f4-dbce2e059133"
      ],
      "origins": [
        "5106d71b-a78e-4d19-a16d-f8fb6719538a"
      ],
      "singers": [
        "b68441b5-bc17-4975-a825-d5c35b50bcf8"
      ],
      "songtypes": [
        "7be1b15c-cff8-4b37-a649-5c90f3d569a9"
      ],
      "songwriters": [
        "b68441b5-bc17-4975-a825-d5c35b50bcf8",
        "9b7e0848-37b3-4772-bb76-67f2518cb41e"
      ],
      "groups": [
        "8e209ae4-4381-438f-89dc-1b21752027d2"
      ]
    },
    "titles": {
      "eng": "Holidays!"
    },
    "titles_default_language": "eng",
    "title": "Holidays!",
    "year": 2021
  }
}