{
  "header": {
    "version": 4,
    "description": "Karaoke Mugen Karaoke Data File"
  },
  "medias": [
    {
      "version": "Animetal.",
      "filename": "JPN - Shin Seiki Evangelion - AMV - Zankoku na Tenshi no These ~ Animetal Vers. ~ Cover Metal Vers.mp4",
      "audiogain": -11.08,
      "loudnorm": "-5.74,2.05,3.40,-16.04,-0.97",
      "filesize": 175696469,
      "duration": 139,
      "default": true,
      "lyrics": [
        {
          "filename": "JPN - Shin Seiki Evangelion - AMV - Zankoku na Tenshi no These ~ Animetal Vers. ~ Cover Metal Vers.ass",
          "default": true,
          "version": "Default"
        }
      ]
    }
  ],
  "data": {
    "created_at": "2018-12-01T15:53:57.000Z",
    "ignoreHooks": false,
    "kid": "782a53a1-4dc1-44a4-b37f-6855a7e8679a",
    "modified_at": "2022-07-31T17:39:17.160Z",
    "parents": [
      "a0ac08a9-46b6-4219-8017-a0a9581ef914"
    ],
    "repository": "kara.moe",
    "tags": {
      "authors": [
        "5bdaba57-27f8-4568-8806-76a807728766"
      ],
      "collections": [
        "c7db86a0-ff64-4044-9be4-66dd1ef1d1c1"
      ],
      "creators": [
        "20d023d6-5195-4e4f-bae3-8b28ad6334e2",
        "45ce7e23-1aa2-4a6c-b17d-4c4a31b628bd",
        "dd729cab-2a78-4282-a402-b242e927a0a5"
      ],
      "families": [
        "0377db02-3af6-43b8-9b08-c759df3d25c3"
      ],
      "groups": [
        "24db50aa-a126-4d34-a48a-e45db79c4245"
      ],
      "langs": [
        "4dcf9614-7914-42aa-99f4-dbce2e059133"
      ],
      "origins": [
        "938de218-5343-4865-94d3-fb33f2eaa152"
      ],
      "series": [
        "af74c4e9-b42d-42c6-9fe0-0365aa8d8ffc"
      ],
      "singers": [
        "45104927-faca-4568-9996-6b24671be711"
      ],
      "songtypes": [
        "a6c79ce5-89ee-4d50-afe8-3abd7317f6c2"
      ],
      "songwriters": [
        "b424ad69-c619-4537-bf0b-326737dda311",
        "c0abb9f6-dfee-45d9-b964-6035e58bcbcd"
      ],
      "versions": [
        "03e1e1d2-8641-47b7-bbcb-39a3df9ff21c",
        "188a5c46-63ff-4e9f-89e4-763468b6ea4a"
      ],
      "franchises": [
        "f5c46257-58e9-4eac-92ce-7d02fd528809"
      ]
    },
    "titles": {
      "eng": "A Cruel Angel's Thesis ~ Animetal Vers.",
      "jpn": "残酷な天使のテーゼ ~ アニメタル Vers.",
      "qro": "Zankoku na Tenshi no These ~ Animetal Vers."
    },
    "titles_default_language": "qro",
    "titles_aliases": [
      "Zankoku na Tenshi no Thesis",
      "The Cruel Angel's Thesis"
    ],
    "title": "Zankoku na Tenshi no These ~ Animetal Vers.",
    "year": 1995
  }
}