{
  "header": {
    "version": 4,
    "description": "Karaoke Mugen Karaoke Data File"
  },
  "medias": [
    {
      "version": "Karen.",
      "filename": "JPN - Nisemonogatari - ED - Naisho no Hanashi ~ Karen Vers. ~ Alternative Vers.mp4",
      "loudnorm": "-19.28,-9.87,3.60,-29.36,-0.79",
      "filesize": 133766344,
      "duration": 91,
      "default": true,
      "lyrics": [
        {
          "filename": "JPN - Nisemonogatari - ED - Naisho no Hanashi ~ Karen Vers. ~ Alternative Vers.ass",
          "default": true,
          "version": "Default"
        }
      ]
    }
  ],
  "data": {
    "created_at": "2017-10-11T17:01:10.000Z",
    "ignoreHooks": false,
    "kid": "03765039-510b-4248-af93-f625d0c8f468",
    "modified_at": "2024-04-08T10:46:56.600Z",
    "repository": "kara.moe",
    "tags": {
      "authors": [
        "fa399f2f-ea1d-4902-8796-ea6d8218aff0"
      ],
      "collections": [
        "c7db86a0-ff64-4044-9be4-66dd1ef1d1c1"
      ],
      "creators": [
        "c3bd80ef-d1fe-427f-913f-a2ba2fe66114"
      ],
      "families": [
        "0377db02-3af6-43b8-9b08-c759df3d25c3"
      ],
      "groups": [
        "ae613721-1fbe-480d-ba6b-d6d0702b184d"
      ],
      "langs": [
        "4dcf9614-7914-42aa-99f4-dbce2e059133"
      ],
      "misc": [
        "fe819ff1-9db8-4a0f-85dc-0e322c9126c4"
      ],
      "origins": [
        "938de218-5343-4865-94d3-fb33f2eaa152"
      ],
      "series": [
        "62309243-9578-4358-a71b-719983813476"
      ],
      "singers": [
        "7c8a8883-aa8c-4f77-83c3-e8c46d5dc3b3",
        "b779550f-ea07-49e4-a444-d376f091b646"
      ],
      "singergroups": [
        "ff590105-5f65-4b1f-adf9-2cfb5b789428"
      ],
      "songtypes": [
        "38c77c56-2b95-4040-b676-0994a8cb0597"
      ],
      "songwriters": [
        "b269bf90-79fc-4167-a78d-e22328df4ee0"
      ],
      "versions": [
        "9f63c359-d1bf-425a-bcf5-b245c2c9211d"
      ],
      "franchises": [
        "94c05ef3-bfff-4a4d-a1a4-b07c32389971"
      ]
    },
    "titles": {
      "jpn": "ナイショの話 ~ 火憐 Vers.",
      "qro": "Naisho no Hanashi ~ Karen Vers."
    },
    "titles_default_language": "qro",
    "year": 2012
  }
}