{
  "header": {
    "version": 4,
    "description": "Karaoke Mugen Karaoke Data File"
  },
  "medias": [
    {
      "version": "Default",
      "filename": "JPN - Project SEKAI Colorful Stage! feat. Hatsune Miku - GAME AUDIO - Garando ~ Cover Short Vers.mp3",
      "loudnorm": "-8.98,0.72,2.90,-19.13,-0.41",
      "filesize": 2301776,
      "duration": 130,
      "default": true,
      "lyrics": [
        {
          "filename": "JPN - Project SEKAI Colorful Stage! feat. Hatsune Miku - GAME AUDIO - Garando ~ Cover Short Vers.ass",
          "default": true,
          "version": "Default"
        }
      ]
    }
  ],
  "data": {
    "created_at": "2024-02-02T14:41:20.327Z",
    "ignoreHooks": false,
    "kid": "ed74b6f0-d8fb-4516-abfe-007ad927f2d7",
    "modified_at": "2024-02-02T15:05:40.027Z",
    "parents": [
      "7f0d3ed6-afff-4ecc-8835-1052d02a5f91"
    ],
    "repository": "kara.moe",
    "tags": {
      "authors": [
        "a3a99b23-6c42-4d38-8863-491153187437"
      ],
      "collections": [
        "c7db86a0-ff64-4044-9be4-66dd1ef1d1c1"
      ],
      "creators": [
        "1e5648fb-22fc-474d-b865-254eb31fa000",
        "b8a3778d-0864-4135-9053-1def02d3262e"
      ],
      "genres": [
        "45623cae-6d68-4304-a49b-896d1d6f4580"
      ],
      "groups": [
        "8e209ae4-4381-438f-89dc-1b21752027d2"
      ],
      "langs": [
        "4dcf9614-7914-42aa-99f4-dbce2e059133"
      ],
      "misc": [
        "1d6ceadf-a885-47e5-b23b-c07bf668a424"
      ],
      "origins": [
        "dbedd6b3-d125-4cd8-aa32-c4175e4ca3a3"
      ],
      "platforms": [
        "213a1a15-e73a-4a08-b3f6-b6e2745a82e5"
      ],
      "series": [
        "192b33fb-638a-4680-bdb2-a5adb9889849"
      ],
      "singers": [
        "7ce72adb-b4f2-42d9-b628-360b759a03df",
        "9a9da3af-c891-42ae-bd3e-f0696a361c04",
        "b1933ef2-f157-4a9e-92a6-bf5cee65c299"
      ],
      "singergroups": [
        "e1de7634-8683-4738-9dfb-a66121ec36c5"
      ],
      "songtypes": [
        "42a262ae-acba-4ab5-a446-c5789c96c821"
      ],
      "songwriters": [
        "f868c86f-8964-491c-a481-0143e8d3093e"
      ],
      "versions": [
        "03e1e1d2-8641-47b7-bbcb-39a3df9ff21c",
        "d125c80a-86c1-4321-88e9-07b7800679b6"
      ]
    },
    "titles": {
      "eng": "Airhead",
      "jpn": "ガランド",
      "qro": "Garando"
    },
    "titles_default_language": "qro",
    "year": 2022
  }
}