{
  "header": {
    "version": 4,
    "description": "Karaoke Mugen Karaoke Data File"
  },
  "medias": [
    {
      "version": "Default",
      "filename": "JPN - Project SEKAI Colorful Stage! feat. Hatsune Miku - GAME MV - Samsa ~ Dance Short Vers.mp4",
      "loudnorm": "-9.98,1.30,8.10,-20.20,-1.93",
      "filesize": 47604699,
      "duration": 114,
      "default": true,
      "lyrics": [
        {
          "filename": "JPN - Project SEKAI Colorful Stage! feat. Hatsune Miku - GAME MV - Samsa ~ Dance Short Vers.ass",
          "default": true,
          "version": "Default"
        }
      ]
    }
  ],
  "data": {
    "created_at": "2023-03-29T17:05:10.072Z",
    "ignoreHooks": false,
    "kid": "bc1e9712-015b-4667-8fd8-0da7e65732bb",
    "modified_at": "2024-05-18T14:23:45.851Z",
    "repository": "kara.moe",
    "tags": {
      "authors": [
        "a3a99b23-6c42-4d38-8863-491153187437"
      ],
      "collections": [
        "c7db86a0-ff64-4044-9be4-66dd1ef1d1c1"
      ],
      "creators": [
        "1e5648fb-22fc-474d-b865-254eb31fa000",
        "b8a3778d-0864-4135-9053-1def02d3262e"
      ],
      "families": [
        "0377db02-3af6-43b8-9b08-c759df3d25c3"
      ],
      "genres": [
        "45623cae-6d68-4304-a49b-896d1d6f4580"
      ],
      "groups": [
        "8e209ae4-4381-438f-89dc-1b21752027d2"
      ],
      "langs": [
        "4dcf9614-7914-42aa-99f4-dbce2e059133"
      ],
      "misc": [
        "1d6ceadf-a885-47e5-b23b-c07bf668a424"
      ],
      "origins": [
        "dbedd6b3-d125-4cd8-aa32-c4175e4ca3a3"
      ],
      "platforms": [
        "213a1a15-e73a-4a08-b3f6-b6e2745a82e5"
      ],
      "series": [
        "192b33fb-638a-4680-bdb2-a5adb9889849"
      ],
      "singers": [
        "088ee286-73a1-4919-8503-68dbc81df761",
        "1fd01df9-13c6-4442-a8c9-4d7922152b32",
        "b0672b63-1519-4a34-99f6-039fdade750e",
        "bbf38c20-4ff8-46ca-8e23-55a71286f0ef",
        "ee6eeedc-a11b-4bc1-951f-67b6ea7a696a"
      ],
      "singergroups": [
        "210b7f5a-db03-4cb6-ab5d-68052851cbb2"
      ],
      "songtypes": [
        "7be1b15c-cff8-4b37-a649-5c90f3d569a9"
      ],
      "songwriters": [
        "ff00519a-73af-4cbd-8ea7-7e441c2195d7"
      ],
      "versions": [
        "9c137e84-51c1-4883-8da4-9408bcb01465",
        "d125c80a-86c1-4321-88e9-07b7800679b6"
      ]
    },
    "titles": {
      "eng": "Samsa",
      "jpn": "ザムザ"
    },
    "titles_default_language": "eng",
    "titles_aliases": [
      "Zamuza"
    ],
    "year": 2023
  }
}