{
  "header": {
    "version": 4,
    "description": "Karaoke Mugen Karaoke Data File"
  },
  "medias": [
    {
      "version": "Default",
      "filename": "JPN - Shin Sakura Taisen the Animation - ED - Sakura Yumemishi.mp4",
      "audiogain": 2.69,
      "loudnorm": "-20.02,-11.06,4.70,-30.08,-0.80",
      "filesize": 39632629,
      "duration": 89,
      "default": true,
      "lyrics": [
        {
          "filename": "JPN - Shin Sakura Taisen the Animation - ED - Sakura Yumemishi.ass",
          "default": true,
          "version": "Default",
          "subchecksum": "7eea78af4b5641d6c1e43d882b3fb70f"
        }
      ]
    }
  ],
  "data": {
    "created_at": "2020-06-04T20:43:43.194Z",
    "kid": "07bac9d9-e5eb-499c-8c45-edb70d916858",
    "modified_at": "2021-02-25T13:03:28.191Z",
    "repository": "kara.moe",
    "tags": {
      "authors": [
        "1df04771-a378-4f14-a5e1-1455187d681a"
      ],
      "collections": [
        "c7db86a0-ff64-4044-9be4-66dd1ef1d1c1"
      ],
      "creators": [
        "4e1122b4-c09f-445f-bdfa-cbad9581f2dc"
      ],
      "families": [
        "0377db02-3af6-43b8-9b08-c759df3d25c3"
      ],
      "genres": [
        "f60ba57d-5ef4-49e0-b93b-d0dcbcff6592"
      ],
      "groups": [
        "8e209ae4-4381-438f-89dc-1b21752027d2"
      ],
      "langs": [
        "4dcf9614-7914-42aa-99f4-dbce2e059133"
      ],
      "origins": [
        "938de218-5343-4865-94d3-fb33f2eaa152"
      ],
      "series": [
        "5867c37f-0366-491e-94e9-2db592c3020e"
      ],
      "singers": [
        "16c170fe-1ada-4916-a0be-42b19eca6ae3",
        "1e2a522f-776f-491a-882a-6892d061b4a2",
        "5a76913d-4ff8-4d38-b609-ed7ab3587d43",
        "6b75c031-a5e4-4779-86e8-fba0e96bd29a",
        "6d2045b2-80ab-45ff-a131-c4df02ef52d1",
        "9332cf9e-20a6-4738-98a2-f6ef30529681",
        "9f7dd6e6-4343-4acc-8ee2-8725062cabf8",
        "c4927d85-e42d-415b-9486-be693c8a8bfe"
      ],
      "songtypes": [
        "38c77c56-2b95-4040-b676-0994a8cb0597"
      ],
      "songwriters": [
        "2461dcff-0d44-481a-9841-a8ae3e3d53db",
        "ad9de3e0-673e-459b-ac88-178ae5e04341",
        "cca6b208-8bfa-406a-a3cd-0da1132df38b"
      ],
      "franchises": [
        "3843ae35-0d40-4fef-9bda-0c222c2e5682"
      ]
    },
    "title": "Sakura Yumemishi",
    "titles": {
      "qro": "Sakura Yumemishi",
      "jpn": "桜夢見し"
    },
    "year": 2020,
    "titles_default_language": "qro"
  }
}