{
  "header": {
    "version": 4,
    "description": "Karaoke Mugen Karaoke Data File"
  },
  "medias": [
    {
      "version": "Shizuku & Ayumu.",
      "filename": "JPN - Love Live! Nijigasaki Gakuen School Idol Doukoukai - LIVE - Anata no Risou no Heroine ~ Shizuku & Ayumu Vers.mp4",
      "loudnorm": "-10.61,2.39,5.00,-20.79,-0.87",
      "filesize": 308256899,
      "duration": 354,
      "default": true,
      "lyrics": [
        {
          "filename": "JPN - Love Live! Nijigasaki Gakuen School Idol Doukoukai - LIVE - Anata no Risou no Heroine ~ Shizuku & Ayumu Vers.ass",
          "default": true,
          "version": "Default"
        }
      ]
    }
  ],
  "data": {
    "comment": "j'ai enlevé le fait que ça vienne d'AZUNA car c'est pas le cas (incompréhension de ma part au niveau de la partie \"from the music band\" !)",
    "created_at": "2023-09-09T22:01:48.841Z",
    "ignoreHooks": false,
    "kid": "f04d69ab-fdb3-4178-aa50-74e77e3d9481",
    "modified_at": "2024-01-30T13:22:06.955Z",
    "parents": [
      "8ebaaa48-96d6-4b48-91e3-676a03744bc6"
    ],
    "repository": "kara.moe",
    "tags": {
      "authors": [
        "16b136eb-921f-4c07-be38-ff92d5cc4313"
      ],
      "collections": [
        "dbcf2c22-524d-4708-99bb-601703633927",
        "c7db86a0-ff64-4044-9be4-66dd1ef1d1c1"
      ],
      "families": [
        "5391f9fe-638c-415f-8dc9-958e3a2c5787"
      ],
      "genres": [
        "caa86df2-0d59-474b-885c-f240a9e891b0"
      ],
      "groups": [
        "8e209ae4-4381-438f-89dc-1b21752027d2"
      ],
      "langs": [
        "4dcf9614-7914-42aa-99f4-dbce2e059133"
      ],
      "misc": [
        "1d6ceadf-a885-47e5-b23b-c07bf668a424",
        "86705d4b-24e4-4756-9687-2b9c98bcf366"
      ],
      "series": [
        "9609e3a6-60db-412a-9d81-e9d9d2e0fb79"
      ],
      "singers": [
        "458ec0c5-db5e-4103-af88-b15a1699264d",
        "747cd011-3914-4212-9079-0da3dd845831"
      ],
      "songtypes": [
        "a0167949-580c-4de3-bf13-497e462e02f3"
      ],
      "songwriters": [
        "306846ad-5bae-4ad1-8f15-9902afb6104e",
        "53a8b658-216c-4178-b531-729181238019"
      ],
      "franchises": [
        "fd5d066e-e85a-4eea-8688-2979a887450a"
      ]
    },
    "titles": {
      "jpn": "あなたの理想のヒロイン",
      "qro": "Anata no Risou no Heroine ~ Shizuku & Ayumu Vers."
    },
    "titles_default_language": "qro",
    "year": 2021
  }
}