{
  "header": {
    "version": 4,
    "description": "Karaoke Mugen Karaoke Data File"
  },
  "medias": [
    {
      "version": "Default",
      "filename": "JPN - Koyomimonogatari - ONA ED1 - whiz.mp4",
      "loudnorm": "-23.04,-9.75,5.50,-33.17,-1.34",
      "filesize": 73428141,
      "duration": 91,
      "default": true,
      "lyrics": [
        {
          "filename": "JPN - Koyomimonogatari - ONA ED1 - whiz.ass",
          "default": true,
          "version": "Default"
        }
      ]
    }
  ],
  "data": {
    "created_at": "2017-10-11T17:01:05.000Z",
    "ignoreHooks": false,
    "kid": "b695d922-bbd3-42bb-9e6e-d6ddf497ee79",
    "modified_at": "2024-05-22T21:43:00.167Z",
    "repository": "kara.moe",
    "songorder": 1,
    "tags": {
      "authors": [
        "6bebcb04-2694-453c-9e0c-eb1a2e2718d9"
      ],
      "collections": [
        "c7db86a0-ff64-4044-9be4-66dd1ef1d1c1"
      ],
      "creators": [
        "c3bd80ef-d1fe-427f-913f-a2ba2fe66114"
      ],
      "families": [
        "0377db02-3af6-43b8-9b08-c759df3d25c3"
      ],
      "groups": [
        "ae613721-1fbe-480d-ba6b-d6d0702b184d"
      ],
      "langs": [
        "4dcf9614-7914-42aa-99f4-dbce2e059133"
      ],
      "origins": [
        "8db3e098-06ef-45e5-bba9-cb04a21c1e66"
      ],
      "series": [
        "877aa50a-6c45-4ba1-a21c-931e361735b0"
      ],
      "singers": [
        "6c2557cb-9bde-4bad-b5a6-8af24a080047",
        "c3e0136f-ad29-4315-9014-cc6b115472f1",
        "cdf462a4-d0ff-4a2c-8c79-a9028cc6395a"
      ],
      "singergroups": [
        "42c260b0-8661-4bb8-ae30-ed0c607060ab"
      ],
      "songtypes": [
        "38c77c56-2b95-4040-b676-0994a8cb0597"
      ],
      "songwriters": [
        "b4279339-b1d8-4da7-8bf9-1f6d5b69be11"
      ],
      "franchises": [
        "94c05ef3-bfff-4a4d-a1a4-b07c32389971"
      ]
    },
    "titles": {
      "eng": "whiz"
    },
    "titles_default_language": "eng",
    "year": 2016
  }
}