{
  "header": {
    "version": 4,
    "description": "Karaoke Mugen Karaoke Data File"
  },
  "medias": [
    {
      "version": "Default",
      "filename": "JPN - Tales of Destiny - GAME PSX OP - Yume de Aru you ni.mp4",
      "audiogain": -7.04,
      "loudnorm": "-10.58,0.53,12.90,-21.14,-1.78",
      "filesize": 39768287,
      "duration": 121,
      "default": true,
      "lyrics": [
        {
          "filename": "JPN - Tales of Destiny - GAME PSX OP - Yume de Aru you ni.ass",
          "default": true,
          "version": "Default"
        }
      ]
    }
  ],
  "data": {
    "created_at": "2017-10-11T15:02:11.000Z",
    "ignoreHooks": false,
    "kid": "e85d2b52-f761-451e-81cb-6fc374a949a0",
    "modified_at": "2022-09-30T20:52:23.289Z",
    "repository": "kara.moe",
    "tags": {
      "authors": [
        "5bdaba57-27f8-4568-8806-76a807728766"
      ],
      "collections": [
        "c7db86a0-ff64-4044-9be4-66dd1ef1d1c1"
      ],
      "creators": [
        "a2b130fa-7274-404a-9e88-500cc3862d0b"
      ],
      "groups": [
        "24db50aa-a126-4d34-a48a-e45db79c4245"
      ],
      "langs": [
        "4dcf9614-7914-42aa-99f4-dbce2e059133"
      ],
      "platforms": [
        "f84b68ac-943a-495a-9c6e-d90ec959b19e"
      ],
      "series": [
        "6bd351eb-a0e2-4c00-8dbf-78e7a2509aa8"
      ],
      "singers": [
        "0be96c36-c76f-4b07-b87e-5598927b45ec"
      ],
      "songtypes": [
        "f02ad9b3-0bd9-4aad-85b3-9976739ba0e4"
      ],
      "songwriters": [
        "0be96c36-c76f-4b07-b87e-5598927b45ec",
        "a34a187c-13cd-4154-a2a4-3b71d91232c0"
      ],
      "franchises": [
        "457ab7f6-9644-4493-b61b-8778400aaf54"
      ],
      "origins": [
        "dbedd6b3-d125-4cd8-aa32-c4175e4ca3a3"
      ]
    },
    "titles": {
      "jpn": "夢であるように",
      "qro": "Yume de Aru yô ni"
    },
    "titles_default_language": "qro",
    "title": "Yume de Aru yô ni",
    "year": 1997,
    "titles_aliases": [
      "you"
    ]
  }
}