{
  "header": {
    "version": 4,
    "description": "Karaoke Mugen Karaoke Data File"
  },
  "medias": [
    {
      "version": "Default",
      "filename": "JPN - Senki Zesshou Symphogear GX - AUDIO IN - Ginwan Airgetlam ~ Full Vers.mp3",
      "loudnorm": "-12.28,-2.69,3.10,-22.36,-0.66",
      "filesize": 11135459,
      "duration": 272,
      "default": true,
      "lyrics": [
        {
          "filename": "JPN - Senki Zesshou Symphogear GX - AUDIO IN - Ginwan Airgetlam ~ Full Vers.ass",
          "default": true,
          "version": "Default"
        }
      ]
    }
  ],
  "data": {
    "created_at": "2023-11-10T03:38:55.090Z",
    "ignoreHooks": false,
    "kid": "645230f3-e490-4288-b9d9-7323377f2e45",
    "modified_at": "2023-11-10T03:38:55.247Z",
    "repository": "kara.moe",
    "tags": {
      "authors": [
        "87096920-112f-485f-a310-04156cb4624d"
      ],
      "collections": [
        "c7db86a0-ff64-4044-9be4-66dd1ef1d1c1"
      ],
      "creators": [
        "de902543-7032-4edd-a407-6c9fade246cd"
      ],
      "langs": [
        "4dcf9614-7914-42aa-99f4-dbce2e059133"
      ],
      "origins": [
        "938de218-5343-4865-94d3-fb33f2eaa152"
      ],
      "series": [
        "86627e91-4551-4e88-899b-2cb017e853e0"
      ],
      "singers": [
        "f2e9d52b-1b80-4fb5-8754-628462e094e5"
      ],
      "songtypes": [
        "42a262ae-acba-4ab5-a446-c5789c96c821",
        "5e5250d9-351a-4a82-98eb-55db50ad8962"
      ],
      "songwriters": [
        "af3ffe51-8059-461c-bbb8-78ea388731f3",
        "24926282-3ed9-47bd-867c-404398fbecf9",
        "5d1704bf-c5e0-4295-b1a4-f74d6afe89e8"
      ],
      "versions": [
        "c2143a7f-6970-450e-8a79-0302db9220a9"
      ],
      "franchises": [
        "61b24082-a6a9-482b-b126-0ad7be595791"
      ],
      "groups": [
        "ae613721-1fbe-480d-ba6b-d6d0702b184d",
        "60defa7b-774e-4680-8321-51b742c2e009"
      ]
    },
    "titles": {
      "jpn": "銀腕・アガートラーム",
      "qro": "Ginwan Airgetlám"
    },
    "titles_default_language": "qro",
    "year": 2015
  }
}