{
  "header": {
    "version": 4,
    "description": "Karaoke Mugen Karaoke Data File"
  },
  "medias": [
    {
      "version": "Default",
      "filename": "JPN - Miku Hatsune - MV - Teammate ~ Alternative Full Vers.mp4",
      "loudnorm": "-7.75,1.47,5.70,-17.83,-1.04",
      "filesize": 66401800,
      "duration": 266,
      "default": true,
      "lyrics": [
        {
          "filename": "JPN - Miku Hatsune - MV - Teammate ~ Alternative Full Vers.ass",
          "default": true,
          "version": "Default"
        }
      ]
    }
  ],
  "data": {
    "created_at": "2024-04-13T00:44:04.874Z",
    "ignoreHooks": false,
    "kid": "6af0e159-19a9-44d1-930a-9868c95f8043",
    "modified_at": "2024-04-13T01:16:18.705Z",
    "parents": [
      "27ee8374-cf07-4416-8e2c-902c7c10bc68"
    ],
    "repository": "kara.moe",
    "tags": {
      "authors": [
        "a3a99b23-6c42-4d38-8863-491153187437"
      ],
      "collections": [
        "c7db86a0-ff64-4044-9be4-66dd1ef1d1c1"
      ],
      "creators": [
        "038756ff-a33b-47ca-93c9-9bfdfb536f26",
        "6d72cfea-d33c-400c-850d-68b61657e6ab"
      ],
      "families": [
        "0377db02-3af6-43b8-9b08-c759df3d25c3"
      ],
      "genres": [
        "45623cae-6d68-4304-a49b-896d1d6f4580"
      ],
      "groups": [
        "8e209ae4-4381-438f-89dc-1b21752027d2"
      ],
      "langs": [
        "4dcf9614-7914-42aa-99f4-dbce2e059133"
      ],
      "singers": [
        "4407ba0e-5de7-4add-870f-7ac95a4804c9"
      ],
      "songtypes": [
        "7be1b15c-cff8-4b37-a649-5c90f3d569a9"
      ],
      "songwriters": [
        "af0dc126-897e-4390-a7a1-cbfed65c2925"
      ],
      "versions": [
        "9f63c359-d1bf-425a-bcf5-b245c2c9211d",
        "c2143a7f-6970-450e-8a79-0302db9220a9"
      ]
    },
    "titles": {
      "eng": "Teammate",
      "jpn": "チームメイト"
    },
    "titles_default_language": "eng",
    "year": 2023
  }
}