{
  "header": {
    "version": 4,
    "description": "Karaoke Mugen Karaoke Data File"
  },
  "medias": [
    {
      "version": "Default",
      "filename": "JPN - Yuusha Ou GaoGaiGar - IN - Saikyou Yuusha Robo Gundan.mp4",
      "audiogain": 1.7,
      "loudnorm": "-20.37,-8.24,4.30,-30.39,-0.23",
      "filesize": 102809094,
      "duration": 191,
      "default": true,
      "lyrics": [
        {
          "filename": "JPN - Yuusha Ou GaoGaiGar - IN - Saikyou Yuusha Robo Gundan.ass",
          "default": true,
          "version": "Default"
        }
      ]
    }
  ],
  "data": {
    "created_at": "2018-06-18T19:40:28.000Z",
    "ignoreHooks": false,
    "kid": "6616dd27-d792-4f6b-86af-934f384892ec",
    "modified_at": "2022-09-30T19:43:32.537Z",
    "repository": "kara.moe",
    "tags": {
      "authors": [
        "a5dbab74-510b-48c5-9cea-5a537a81c974"
      ],
      "collections": [
        "c7db86a0-ff64-4044-9be4-66dd1ef1d1c1"
      ],
      "creators": [
        "ef8f80e1-d244-4aea-b7f0-984d6dd4b82b"
      ],
      "families": [
        "0377db02-3af6-43b8-9b08-c759df3d25c3"
      ],
      "genres": [
        "f60ba57d-5ef4-49e0-b93b-d0dcbcff6592"
      ],
      "groups": [
        "24db50aa-a126-4d34-a48a-e45db79c4245",
        "8c22c899-b3ed-42da-a548-ce00f950798b"
      ],
      "langs": [
        "4dcf9614-7914-42aa-99f4-dbce2e059133"
      ],
      "origins": [
        "938de218-5343-4865-94d3-fb33f2eaa152"
      ],
      "series": [
        "0a99dee4-b69c-4108-a211-096e644abb72"
      ],
      "singers": [
        "da3a7a95-256b-4b15-9dfc-840c7b1c1cff"
      ],
      "songtypes": [
        "5e5250d9-351a-4a82-98eb-55db50ad8962"
      ],
      "songwriters": [
        "2461dcff-0d44-481a-9841-a8ae3e3d53db",
        "6331c258-62f2-49e2-904c-75ea1e41f086"
      ],
      "franchises": [
        "0a99dee4-b69c-4108-a211-096e644abb72"
      ]
    },
    "titles": {
      "jpn": "最強勇者ロボ軍団",
      "qro": "Saikyô Yûsha Robo Gundan"
    },
    "titles_default_language": "qro",
    "title": "Saikyô Yûsha Robo Gundan",
    "year": 1997,
    "titles_aliases": [
      "Saikyou",
      "Yuusha"
    ]
  }
}