{
  "header": {
    "version": 4,
    "description": "Karaoke Mugen Karaoke Data File"
  },
  "medias": [
    {
      "version": "Default",
      "filename": "JPN - Given - IN - Fuyu no Hanashi.mp4",
      "loudnorm": "-4.85,1.50,3.00,-14.99,-0.09",
      "filesize": 30848329,
      "duration": 205,
      "default": true,
      "lyrics": [
        {
          "filename": "JPN - Given - IN - Fuyu no Hanashi.ass",
          "default": true,
          "version": "Default"
        }
      ]
    }
  ],
  "data": {
    "created_at": "2019-09-06T17:30:17.000Z",
    "ignoreHooks": false,
    "kid": "05401f07-bb2d-4140-b39c-f326d0a263aa",
    "modified_at": "2024-05-16T21:15:46.980Z",
    "repository": "kara.moe",
    "tags": {
      "authors": [
        "2a9bbf75-0722-4b4a-9935-caa92f38fdd1"
      ],
      "collections": [
        "c7db86a0-ff64-4044-9be4-66dd1ef1d1c1"
      ],
      "creators": [
        "20a71a02-6670-4e6a-a5be-ad8d71df94f7"
      ],
      "families": [
        "0377db02-3af6-43b8-9b08-c759df3d25c3"
      ],
      "genres": [
        "724d2d80-a531-4579-bdaf-4a0db9a313d9"
      ],
      "groups": [
        "ae613721-1fbe-480d-ba6b-d6d0702b184d"
      ],
      "langs": [
        "4dcf9614-7914-42aa-99f4-dbce2e059133"
      ],
      "origins": [
        "938de218-5343-4865-94d3-fb33f2eaa152"
      ],
      "series": [
        "c1c35fbb-db52-4ddd-bc0d-3b6038ad0719"
      ],
      "singers": [
        "bee49588-2e47-4842-9da4-31dabadc75ae"
      ],
      "songtypes": [
        "5e5250d9-351a-4a82-98eb-55db50ad8962"
      ],
      "songwriters": [
        "17909931-df25-4e29-be2a-e05a087936fa"
      ],
      "franchises": [
        "c1c35fbb-db52-4ddd-bc0d-3b6038ad0719"
      ]
    },
    "titles": {
      "jpn": "冬のはなし",
      "qro": "Fuyu no Hanashi"
    },
    "titles_default_language": "qro",
    "year": 2019
  }
}