{
  "header": {
    "version": 4,
    "description": "Karaoke Mugen Karaoke Data File"
  },
  "medias": [
    {
      "version": "Default",
      "filename": "JPN - Ensemble Stars! - GAME MV - Nebula ~ Short Vers.mp4",
      "loudnorm": "-8.57,0.89,4.40,-18.58,-0.69",
      "filesize": 80314822,
      "duration": 158,
      "default": true,
      "lyrics": [
        {
          "filename": "JPN - Ensemble Stars! - GAME MV - Nebula ~ Short Vers.ass",
          "default": true,
          "version": "Default"
        }
      ]
    }
  ],
  "data": {
    "created_at": "2023-11-25T11:27:23.641Z",
    "ignoreHooks": false,
    "kid": "659b2a97-8aea-4a8f-b1d4-385b860b4d43",
    "modified_at": "2024-04-01T15:11:04.604Z",
    "repository": "kara.moe",
    "tags": {
      "authors": [
        "c8dc36ff-39b3-48b5-9552-f75ffc9a9e1b"
      ],
      "collections": [
        "c7db86a0-ff64-4044-9be4-66dd1ef1d1c1"
      ],
      "creators": [
        "5b938ceb-1629-4653-bbd2-27af0dd5aebf"
      ],
      "families": [
        "0377db02-3af6-43b8-9b08-c759df3d25c3"
      ],
      "genres": [
        "caa86df2-0d59-474b-885c-f240a9e891b0"
      ],
      "groups": [
        "8e209ae4-4381-438f-89dc-1b21752027d2"
      ],
      "langs": [
        "4dcf9614-7914-42aa-99f4-dbce2e059133"
      ],
      "misc": [
        "1d6ceadf-a885-47e5-b23b-c07bf668a424"
      ],
      "origins": [
        "dbedd6b3-d125-4cd8-aa32-c4175e4ca3a3"
      ],
      "platforms": [
        "213a1a15-e73a-4a08-b3f6-b6e2745a82e5"
      ],
      "series": [
        "d1184e31-716b-4ed1-8c81-9cd0d42afdc2"
      ],
      "singers": [
        "1b061bf9-73e5-4365-b3f3-c31872fd8dab",
        "440e9a3f-247c-44d4-9070-c0d07eb16d78"
      ],
      "singergroups": [
        "e15d5ba2-5b9a-4c8e-a138-580b8bb32177"
      ],
      "songtypes": [
        "7be1b15c-cff8-4b37-a649-5c90f3d569a9"
      ],
      "songwriters": [
        "35842822-bd68-4610-8575-ba956b5743ab",
        "7deff575-e060-4dfa-ab34-59fe10328153"
      ],
      "versions": [
        "d125c80a-86c1-4321-88e9-07b7800679b6"
      ],
      "franchises": [
        "2f12b261-e600-4bed-8ba1-122f61a73597"
      ]
    },
    "titles": {
      "eng": "Nebula",
      "jpn": "ネビュラ",
      "qro": "Nebyura"
    },
    "titles_default_language": "eng",
    "year": 2023
  }
}