{
  "header": {
    "version": 4,
    "description": "Karaoke Mugen Karaoke Data File"
  },
  "medias": [
    {
      "version": "Default",
      "filename": "JPN - Oshi no Ko - MV - Idol ~ Full Vers.mp4",
      "audiogain": -10.25,
      "loudnorm": "-6.79,2.35,3.50,-16.80,-0.03",
      "filesize": 77640699,
      "duration": 225,
      "default": true,
      "lyrics": [
        {
          "filename": "JPN - Oshi no Ko - MV - Idol ~ Full Vers.ass",
          "default": true,
          "version": "Default"
        }
      ]
    }
  ],
  "data": {
    "created_at": "2023-04-11T22:06:36.508Z",
    "ignoreHooks": false,
    "kid": "f93f5fa6-a4f1-4f55-ba3d-a6fcc9dcb27c",
    "modified_at": "2023-05-02T21:31:53.836Z",
    "parents": [
      "d0cbf006-717e-41c1-9343-54b060854350"
    ],
    "repository": "kara.moe",
    "tags": {
      "authors": [
        "7848b5dc-a5df-4577-b640-147be5288cec"
      ],
      "collections": [
        "dbcf2c22-524d-4708-99bb-601703633927"
      ],
      "creators": [
        "5b10d972-08a8-419d-9663-46930cc2c347"
      ],
      "families": [
        "0377db02-3af6-43b8-9b08-c759df3d25c3"
      ],
      "genres": [
        "caa86df2-0d59-474b-885c-f240a9e891b0"
      ],
      "groups": [
        "8e209ae4-4381-438f-89dc-1b21752027d2"
      ],
      "langs": [
        "4dcf9614-7914-42aa-99f4-dbce2e059133"
      ],
      "origins": [
        "938de218-5343-4865-94d3-fb33f2eaa152"
      ],
      "series": [
        "2f23efae-dc36-4438-8e8d-66c0cd746cd0"
      ],
      "singers": [
        "92d1e6ad-8f3c-4ace-a028-d78798510043"
      ],
      "singergroups": [
        "e028a7e9-d3f2-4df7-a6ba-c7f78e98b549"
      ],
      "songtypes": [
        "7be1b15c-cff8-4b37-a649-5c90f3d569a9"
      ],
      "songwriters": [
        "ac03c264-7085-486b-a47f-3e7574e51a33"
      ],
      "versions": [
        "c2143a7f-6970-450e-8a79-0302db9220a9"
      ]
    },
    "titles": {
      "eng": "Idol",
      "jpn": "アイドル"
    },
    "titles_default_language": "eng",
    "year": 2023
  }
}