{
  "header": {
    "version": 4,
    "description": "Karaoke Mugen Karaoke Data File"
  },
  "medias": [
    {
      "version": "Default",
      "filename": "JPN - GRANBLUE FANTASY The Animation - ED - Sora no Parade.mp4",
      "audiogain": -1.65,
      "loudnorm": "-16.01,-4.22,5.80,-26.20,-1.39",
      "filesize": 15406978,
      "duration": 90,
      "default": true,
      "lyrics": [
        {
          "filename": "JPN - GRANBLUE FANTASY The Animation - ED - Sora no Parade.ass",
          "default": true,
          "version": "Default",
          "subchecksum": "75f59c5ae1ca00aebe64f7b8c5250b45"
        }
      ]
    }
  ],
  "data": {
    "created_at": "2018-07-25T19:45:59.000Z",
    "kid": "c6b7084b-a1b0-46b3-88f5-a7372daa863f",
    "modified_at": "2021-02-25T11:31:56.240Z",
    "repository": "kara.moe",
    "tags": {
      "authors": [
        "b5116310-e69b-4ed4-9e47-c5c53ee69023"
      ],
      "collections": [
        "c7db86a0-ff64-4044-9be4-66dd1ef1d1c1"
      ],
      "creators": [
        "b96e3686-bbe0-4b9e-815a-a278d5ff31be"
      ],
      "families": [
        "0377db02-3af6-43b8-9b08-c759df3d25c3"
      ],
      "groups": [
        "ae613721-1fbe-480d-ba6b-d6d0702b184d"
      ],
      "langs": [
        "4dcf9614-7914-42aa-99f4-dbce2e059133"
      ],
      "origins": [
        "938de218-5343-4865-94d3-fb33f2eaa152"
      ],
      "series": [
        "0fc68c89-0431-4b0c-a8bf-f1a7154bf6d9"
      ],
      "singers": [
        "d8134d3a-0203-43b4-b1c5-4b8f4cc12c27"
      ],
      "songtypes": [
        "38c77c56-2b95-4040-b676-0994a8cb0597"
      ],
      "songwriters": [
        "d8134d3a-0203-43b4-b1c5-4b8f4cc12c27"
      ],
      "franchises": [
        "4849c8a3-1885-4e79-9c68-89fcbaebdac2"
      ]
    },
    "title": "Sora no Parade",
    "titles": {
      "qro": "Sora no Parade",
      "jpn": "ソラのパレード"
    },
    "year": 2017,
    "titles_default_language": "qro"
  }
}