{
  "header": {
    "version": 4,
    "description": "Karaoke Mugen Karaoke Data File"
  },
  "medias": [
    {
      "version": "Default",
      "filename": "JPN - CLANNAD - OP - Mag Mell ~cuckool mix 2007~.mp4",
      "audiogain": -6.44,
      "loudnorm": "-11.17,2.41,6.90,-21.52,-1.37",
      "filesize": 26218523,
      "duration": 89,
      "default": true,
      "lyrics": [
        {
          "filename": "JPN - CLANNAD - OP - Mag Mell ~cuckool mix 2007~.ass",
          "default": true,
          "version": "Default"
        }
      ]
    }
  ],
  "data": {
    "created_at": "2017-10-11T17:02:45.000Z",
    "ignoreHooks": false,
    "kid": "b54a0839-4b98-4082-a329-304b997df995",
    "modified_at": "2022-11-13T21:07:09.025Z",
    "parents": [
      "0b32d72d-4236-443c-93a2-9787137aa058"
    ],
    "repository": "kara.moe",
    "tags": {
      "authors": [
        "30c93a71-75d0-4ea7-9107-f2a804c8444a"
      ],
      "collections": [
        "c7db86a0-ff64-4044-9be4-66dd1ef1d1c1"
      ],
      "creators": [
        "d93786af-5098-49b2-9928-37edfb3d0322"
      ],
      "families": [
        "0377db02-3af6-43b8-9b08-c759df3d25c3"
      ],
      "groups": [
        "3c14c864-533c-49e6-a3cc-6969f1233775"
      ],
      "langs": [
        "4dcf9614-7914-42aa-99f4-dbce2e059133"
      ],
      "origins": [
        "938de218-5343-4865-94d3-fb33f2eaa152"
      ],
      "series": [
        "03831007-d498-4a8d-8a4c-6a6fac0c92c5"
      ],
      "singers": [
        "d2c58207-02f6-44e6-a80d-1cd4dc3df848"
      ],
      "songtypes": [
        "f02ad9b3-0bd9-4aad-85b3-9976739ba0e4"
      ],
      "songwriters": [
        "b42731d8-fee7-401f-a78e-136a8a6dcd3d",
        "d2c58207-02f6-44e6-a80d-1cd4dc3df848"
      ],
      "franchises": [
        "03831007-d498-4a8d-8a4c-6a6fac0c92c5"
      ]
    },
    "titles": {
      "jpn": "メグメル ～cuckool mix 2007～",
      "qro": "Mag Mell ~cuckool mix 2007~"
    },
    "titles_default_language": "qro",
    "titles_aliases": [
      "megumeru"
    ],
    "year": 2007
  }
}