{
  "header": {
    "version": 4,
    "description": "Karaoke Mugen Karaoke Data File"
  },
  "medias": [
    {
      "version": "Default",
      "filename": "JPN - Nogizaka Haruka no Himitsu Purezza - ED - Himitsu Suishou! Uru to LOVE.mp4",
      "audiogain": -1.17,
      "loudnorm": "-17.15,-5.84,3.20,-27.31,-0.57",
      "filesize": 26205653,
      "duration": 91,
      "default": true,
      "lyrics": [
        {
          "filename": "JPN - Nogizaka Haruka no Himitsu Purezza - ED - Himitsu Suishou! Uru to LOVE.ass",
          "default": true,
          "version": "Default"
        }
      ]
    }
  ],
  "data": {
    "created_at": "2017-10-11T17:02:49.000Z",
    "ignoreHooks": false,
    "kid": "97676ad6-efe4-46ed-93e1-ab39ee5dbe95",
    "modified_at": "2022-09-30T21:33:16.950Z",
    "repository": "kara.moe",
    "tags": {
      "authors": [
        "5bdaba57-27f8-4568-8806-76a807728766"
      ],
      "collections": [
        "c7db86a0-ff64-4044-9be4-66dd1ef1d1c1"
      ],
      "creators": [
        "e9bbc92f-b99d-45d4-869c-39b36d70382e"
      ],
      "families": [
        "0377db02-3af6-43b8-9b08-c759df3d25c3"
      ],
      "groups": [
        "3c14c864-533c-49e6-a3cc-6969f1233775"
      ],
      "langs": [
        "4dcf9614-7914-42aa-99f4-dbce2e059133"
      ],
      "origins": [
        "938de218-5343-4865-94d3-fb33f2eaa152"
      ],
      "series": [
        "5b56a505-cffb-47df-80bf-3364776c9d21"
      ],
      "singers": [
        "5350e9ad-a646-4ec6-b790-97caca663637",
        "6e138f2f-56f6-47a3-931f-07b9c4aee613",
        "723bede0-ee94-4f79-823b-05ff6b0b79a9",
        "c4bfcd03-d02d-48d2-bc55-da6a1ab92f7b",
        "d42fccdf-15f2-4f73-8fd1-671ec9e98a04",
        "e18797bb-b393-440c-b782-41f37e51590f"
      ],
      "songtypes": [
        "38c77c56-2b95-4040-b676-0994a8cb0597"
      ],
      "songwriters": [
        "12904bc2-602e-4ec7-9077-760191f04cf6",
        "d5906158-9609-4e75-9f72-f66be9d592e0"
      ],
      "franchises": [
        "a3a45bc0-6745-4012-ba93-2c826da31d16"
      ]
    },
    "titles": {
      "jpn": "秘密推奨!うるとLOVE",
      "qro": "Himitsu Suishô! Uru to LOVE"
    },
    "titles_default_language": "qro",
    "title": "Himitsu Suishô! Uru to LOVE",
    "year": 2009,
    "titles_aliases": [
      "Suishou!"
    ]
  }
}