{
  "header": {
    "version": 4,
    "description": "Karaoke Mugen Karaoke Data File"
  },
  "medias": [
    {
      "version": "Default",
      "filename": "JPN - Yosuga no Sora - ED1 - Tsunagu kizuna.mp4",
      "loudnorm": "-13.76,-0.01,7.10,-23.96,-1.19",
      "filesize": 16401613,
      "duration": 91,
      "default": true,
      "lyrics": [
        {
          "filename": "JPN - Yosuga no Sora - ED1 - Tsunagu kizuna.ass",
          "default": true,
          "version": "Default"
        }
      ]
    }
  ],
  "data": {
    "created_at": "2017-10-11T17:01:25.000Z",
    "ignoreHooks": false,
    "kid": "8d0082f6-b85c-475f-9ae7-8e3bd9f1d306",
    "modified_at": "2024-05-04T14:02:18.520Z",
    "repository": "kara.moe",
    "songorder": 1,
    "tags": {
      "authors": [
        "5bdaba57-27f8-4568-8806-76a807728766"
      ],
      "collections": [
        "c7db86a0-ff64-4044-9be4-66dd1ef1d1c1"
      ],
      "creators": [
        "5c15c11c-e09d-4a4f-ab3d-143d69439fc2"
      ],
      "families": [
        "0377db02-3af6-43b8-9b08-c759df3d25c3"
      ],
      "groups": [
        "ae613721-1fbe-480d-ba6b-d6d0702b184d"
      ],
      "langs": [
        "4dcf9614-7914-42aa-99f4-dbce2e059133"
      ],
      "origins": [
        "938de218-5343-4865-94d3-fb33f2eaa152"
      ],
      "series": [
        "e684da31-6849-4505-9b2f-3e34220bb012"
      ],
      "singers": [
        "7d210f33-27ba-4e28-8e54-fb74848c3829"
      ],
      "singergroups": [
        "11846a94-2965-4798-9603-a9dec631ad3e"
      ],
      "songtypes": [
        "38c77c56-2b95-4040-b676-0994a8cb0597"
      ],
      "songwriters": [
        "353c94da-0e1e-4cf1-b6de-ee5b81a4e332"
      ]
    },
    "titles": {
      "jpn": "ツナグキズナ",
      "qro": "Tsunagu kizuna"
    },
    "titles_default_language": "qro",
    "year": 2010
  }
}