{
  "header": {
    "version": 4,
    "description": "Karaoke Mugen Karaoke Data File"
  },
  "medias": [
    {
      "version": "Default",
      "filename": "JPN - Monogatari Series Second Season - ED3 - snowdrop.mp4",
      "audiogain": 5.6,
      "loudnorm": "-22.62,-11.76,13.00,-33.23,-2.21",
      "filesize": 76292038,
      "duration": 91,
      "default": true,
      "lyrics": [
        {
          "filename": "JPN - Monogatari Series Second Season - ED3 - snowdrop.ass",
          "default": true,
          "version": "Default",
          "subchecksum": "2ea4e61552bfecab8482a1d3218a387d"
        }
      ]
    }
  ],
  "data": {
    "created_at": "2017-10-11T17:02:03.000Z",
    "kid": "c7323acf-9e2f-4283-80a3-9908c3278cee",
    "modified_at": "2021-02-25T12:30:02.303Z",
    "repository": "kara.moe",
    "songorder": 3,
    "tags": {
      "authors": [
        "6bebcb04-2694-453c-9e0c-eb1a2e2718d9"
      ],
      "collections": [
        "c7db86a0-ff64-4044-9be4-66dd1ef1d1c1"
      ],
      "creators": [
        "c3bd80ef-d1fe-427f-913f-a2ba2fe66114"
      ],
      "families": [
        "0377db02-3af6-43b8-9b08-c759df3d25c3"
      ],
      "groups": [
        "ae613721-1fbe-480d-ba6b-d6d0702b184d"
      ],
      "langs": [
        "4dcf9614-7914-42aa-99f4-dbce2e059133"
      ],
      "origins": [
        "938de218-5343-4865-94d3-fb33f2eaa152"
      ],
      "series": [
        "2a97081b-21e7-4bec-813f-a0324559dfdb"
      ],
      "singers": [
        "9e3b7bd6-d31f-4e68-a873-3a7c51f8cdb3",
        "c509e5a7-aa53-4f10-aaa3-c280effe8560"
      ],
      "songtypes": [
        "38c77c56-2b95-4040-b676-0994a8cb0597"
      ],
      "songwriters": [
        "81d493c9-3353-40d4-b94d-7fa42d3b4229"
      ],
      "franchises": [
        "94c05ef3-bfff-4a4d-a1a4-b07c32389971"
      ]
    },
    "title": "snowdrop",
    "titles": {
      "eng": "snowdrop"
    },
    "year": 2013,
    "titles_default_language": "eng"
  }
}