{
  "header": {
    "version": 4,
    "description": "Karaoke Mugen Karaoke Data File"
  },
  "medias": [
    {
      "version": "Default",
      "filename": "JPN - Tamayura - OVA OP - Yasashisa ni Tsutsumareta Nara.mp4",
      "loudnorm": "-21.08,-11.83,4.20,-31.35,-0.88",
      "filesize": 35740557,
      "duration": 91,
      "default": true,
      "lyrics": [
        {
          "filename": "JPN - Tamayura - OVA OP - Yasashisa ni Tsutsumareta Nara.ass",
          "default": true,
          "version": "Default"
        }
      ]
    }
  ],
  "data": {
    "created_at": "2017-10-11T17:02:29.000Z",
    "ignoreHooks": false,
    "kid": "e301b5ce-a8e5-4adb-80b0-b9e560c2e888",
    "modified_at": "2023-12-02T16:11:19.209Z",
    "parents": [
      "dea75a14-1fea-47df-b47d-fc39b0f81793"
    ],
    "repository": "kara.moe",
    "tags": {
      "authors": [
        "5bdaba57-27f8-4568-8806-76a807728766"
      ],
      "collections": [
        "c7db86a0-ff64-4044-9be4-66dd1ef1d1c1"
      ],
      "creators": [
        "00177209-7df7-4d4d-bbcb-4c52d50710d8"
      ],
      "families": [
        "0377db02-3af6-43b8-9b08-c759df3d25c3"
      ],
      "groups": [
        "ae613721-1fbe-480d-ba6b-d6d0702b184d"
      ],
      "langs": [
        "4dcf9614-7914-42aa-99f4-dbce2e059133"
      ],
      "misc": [
        "fe819ff1-9db8-4a0f-85dc-0e322c9126c4"
      ],
      "origins": [
        "2a6ef087-a000-4f8e-aeb5-9a7968756a36"
      ],
      "series": [
        "aa9da6bf-73ab-482f-9b01-91087dca717f"
      ],
      "singers": [
        "1e93160f-11bb-4d02-b716-4660cb29206e"
      ],
      "songtypes": [
        "f02ad9b3-0bd9-4aad-85b3-9976739ba0e4"
      ],
      "songwriters": [
        "07ce1ce3-fa11-45e5-aff9-56cf5b4459ba"
      ],
      "franchises": [
        "aa9da6bf-73ab-482f-9b01-91087dca717f"
      ]
    },
    "titles": {
      "jpn": "やさしさに包まれたなら",
      "qro": "Yasashisa ni Tsutsumareta Nara"
    },
    "titles_default_language": "qro",
    "year": 2010
  }
}