{
  "header": {
    "version": 4,
    "description": "Karaoke Mugen Karaoke Data File"
  },
  "medias": [
    {
      "version": "Default",
      "filename": "JPN - Sakura Taisen 4 Koi Seyo Otome - PC GAME OP - Geki! Tei ~Sai Shuushou~.mp4",
      "audiogain": -5.09,
      "loudnorm": "-13.31,-0.37,4.80,-23.42,-0.84",
      "filesize": 22596872,
      "duration": 84,
      "default": true,
      "lyrics": [
        {
          "filename": "JPN - Sakura Taisen 4 Koi Seyo Otome - PC GAME OP - Geki! Tei ~Sai Shuushou~.ass",
          "default": true,
          "version": "Default",
          "subchecksum": "6ae38ccb0403d62a9dea9b2976dc6ded"
        }
      ]
    }
  ],
  "data": {
    "created_at": "2017-10-11T17:02:37.000Z",
    "kid": "005e4c99-64e6-4b47-ae6a-04ebee1bcabe",
    "modified_at": "2021-02-25T12:56:18.842Z",
    "repository": "kara.moe",
    "tags": {
      "authors": [
        "1df04771-a378-4f14-a5e1-1455187d681a"
      ],
      "collections": [
        "c7db86a0-ff64-4044-9be4-66dd1ef1d1c1"
      ],
      "creators": [
        "500e2283-ec1c-46cf-a559-8e11e3e86d99",
        "b8a3778d-0864-4135-9053-1def02d3262e",
        "ea2c97ab-72a6-4867-a3a7-1e7f0dfbcfc6"
      ],
      "genres": [
        "f60ba57d-5ef4-49e0-b93b-d0dcbcff6592"
      ],
      "groups": [
        "3c14c864-533c-49e6-a3cc-6969f1233775"
      ],
      "langs": [
        "4dcf9614-7914-42aa-99f4-dbce2e059133"
      ],
      "platforms": [
        "3c15f758-e1bc-4266-8bb9-3c14112f504a",
        "cf4a3dd9-affa-49b4-ad4c-67cbadf09c8d"
      ],
      "series": [
        "e2e69097-d66d-440c-9125-08f8c6bd8518"
      ],
      "singers": [
        "068fdb92-16a6-46ed-a0f6-ffb819d3db62",
        "10ce8b6a-4a81-4aef-afc5-e4e4a742d225",
        "45d60c9a-d4a2-4fcc-b101-24005218f36e",
        "5fe433a6-1604-4892-b859-b71bc8212b78",
        "63f2dd31-2736-4f1c-ac7f-67a084a73974",
        "6fbd9a22-5015-4f6d-9d67-a81c2291ac55",
        "72237cd4-914e-4b13-b61f-74ea06f41f01",
        "8f7f8994-bfef-4fc9-b2e7-a0eeffbca01e",
        "9eba9b17-ad7f-4b5b-876c-3e5c0254c9d4",
        "a7df006f-215a-4cad-a9b9-92b631c84ad8",
        "a9d47736-e7e7-4895-9f04-0d599c65287c",
        "d2799c9f-4284-491a-bc75-9adf509a7e1e",
        "e704f28c-bf77-4dbe-9c68-1b2f9d8755a6",
        "f6ed977b-9c0f-47ac-94e0-40859034624a"
      ],
      "songtypes": [
        "f02ad9b3-0bd9-4aad-85b3-9976739ba0e4"
      ],
      "songwriters": [
        "2461dcff-0d44-481a-9841-a8ae3e3d53db",
        "2d718c99-fcaf-494b-8216-06f2d66e66a5",
        "7cc5d197-4923-4d92-a0e8-deffcf49b1cf"
      ],
      "franchises": [
        "3843ae35-0d40-4fef-9bda-0c222c2e5682"
      ],
      "origins": [
        "dbedd6b3-d125-4cd8-aa32-c4175e4ca3a3"
      ]
    },
    "title": "Geki! Tei ~Sai Shûshô~",
    "titles": {
      "qro": "Geki! Tei ~Sai Shûshô~",
      "jpn": "檄！帝 ～最終章～"
    },
    "year": 2002,
    "titles_default_language": "qro"
  }
}