{
  "header": {
    "version": 4,
    "description": "Karaoke Mugen Karaoke Data File"
  },
  "medias": [
    {
      "version": "Default",
      "filename": "JPN - Starlight Kukugumi - AUDIO - Yakusoku Tower.opus",
      "loudnorm": "-6.82,0.69,3.20,-16.98,-0.27",
      "filesize": 12093838,
      "duration": 297,
      "default": true,
      "lyrics": [
        {
          "filename": "JPN - Starlight Kukugumi - AUDIO - Yakusoku Tower.ass",
          "default": true,
          "version": "Default"
        }
      ]
    }
  ],
  "data": {
    "created_at": "2024-04-16T03:21:12.011Z",
    "ignoreHooks": false,
    "kid": "5f3b21a5-a353-4b99-bfbb-4d9fcbbd9a27",
    "modified_at": "2024-04-16T03:21:12.139Z",
    "repository": "kara.moe",
    "tags": {
      "authors": [
        "7848b5dc-a5df-4577-b640-147be5288cec"
      ],
      "collections": [
        "c7db86a0-ff64-4044-9be4-66dd1ef1d1c1"
      ],
      "groups": [
        "ae613721-1fbe-480d-ba6b-d6d0702b184d"
      ],
      "langs": [
        "4dcf9614-7914-42aa-99f4-dbce2e059133"
      ],
      "misc": [
        "1d6ceadf-a885-47e5-b23b-c07bf668a424"
      ],
      "singers": [
        "0691da5a-1612-40fe-91a3-898cce043c3e",
        "1477f7cf-7a03-4ecc-a3eb-81fe697202ed",
        "371f95d8-5385-4728-8dbb-0cd3e5892ce4",
        "4fc68333-b1f6-44ce-b2be-ac4866b78932",
        "67f4e548-9fc9-48f1-bc2c-8c24fd88f5f2",
        "bbf38c20-4ff8-46ca-8e23-55a71286f0ef",
        "cd997481-e2ff-4d88-ab77-152bedb5041a",
        "d450e6ee-57dc-41ea-b60e-396135d6a2e8",
        "e3ec5558-2fa7-44e9-a4a4-59910a7a3370"
      ],
      "singergroups": [
        "30caa67d-4228-4164-a807-6dd484dd7b19"
      ],
      "songtypes": [
        "42a262ae-acba-4ab5-a446-c5789c96c821"
      ],
      "songwriters": [
        "ead196cc-e1e3-43a4-8804-dd4199e89c4e",
        "78234eac-ff48-4e15-9929-e207780a520e",
        "acf1000c-da9d-4fe4-9722-966cf2c7914e"
      ],
      "franchises": [
        "197ecb28-b423-4c66-bbdb-49b89b5ed153"
      ]
    },
    "titles": {
      "qro": "Yakusoku Tower",
      "jpn": "約束タワー"
    },
    "titles_default_language": "qro",
    "year": 2019
  }
}