{
  "header": {
    "version": 4,
    "description": "Karaoke Mugen Karaoke Data File"
  },
  "medias": [
    {
      "version": "Default",
      "filename": "JPN - Link! Like! Love Live! - AUDIO - Zanyou.mp3",
      "loudnorm": "-7.10,6.15,3.70,-17.17,-0.62",
      "filesize": 9099140,
      "duration": 220,
      "default": true,
      "lyrics": [
        {
          "filename": "JPN - Link! Like! Love Live! - AUDIO - Zanyou.ass",
          "default": true,
          "version": "Default"
        }
      ]
    }
  ],
  "data": {
    "created_at": "2023-10-01T21:25:33.946Z",
    "ignoreHooks": false,
    "kid": "058791ec-969d-4f62-b365-20f9dd126cb9",
    "modified_at": "2024-01-30T13:22:06.443Z",
    "repository": "kara.moe",
    "tags": {
      "authors": [
        "16b136eb-921f-4c07-be38-ff92d5cc4313"
      ],
      "collections": [
        "dbcf2c22-524d-4708-99bb-601703633927",
        "c7db86a0-ff64-4044-9be4-66dd1ef1d1c1"
      ],
      "genres": [
        "caa86df2-0d59-474b-885c-f240a9e891b0"
      ],
      "groups": [
        "8e209ae4-4381-438f-89dc-1b21752027d2"
      ],
      "langs": [
        "4dcf9614-7914-42aa-99f4-dbce2e059133"
      ],
      "misc": [
        "1d6ceadf-a885-47e5-b23b-c07bf668a424"
      ],
      "series": [
        "c6245b47-6ad8-498a-b790-e6b8a50fea5e"
      ],
      "singers": [
        "1a912ff3-ff2f-4e8a-92de-d2adbb19d0b3",
        "1f0b407a-7bf9-457c-aabf-7d7297c75be2"
      ],
      "singergroups": [
        "c60ae79c-f8cf-466f-abc1-d008ff6cab25"
      ],
      "songtypes": [
        "42a262ae-acba-4ab5-a446-c5789c96c821"
      ],
      "songwriters": [
        "a82aabc3-b902-4843-b573-e040ce1a9a56",
        "d058acc8-817c-440e-b561-4d6d416cd5ab"
      ],
      "franchises": [
        "fd5d066e-e85a-4eea-8688-2979a887450a"
      ]
    },
    "titles": {
      "jpn": "残陽",
      "qro": "Zanyou"
    },
    "titles_default_language": "qro",
    "year": 2023
  }
}