{
  "header": {
    "version": 4,
    "description": "Karaoke Mugen Karaoke Data File"
  },
  "medias": [
    {
      "version": "Default",
      "filename": "JPN - Mahou Sensei Negima! - OP - Happy Material.mp4",
      "audiogain": 0.45,
      "loudnorm": "-17.77,-5.71,4.10,-27.95,-0.18",
      "filesize": 17959083,
      "duration": 91,
      "default": true,
      "lyrics": [
        {
          "filename": "JPN - Mahou Sensei Negima! - OP - Happy Material.ass",
          "default": true,
          "version": "Default",
          "subchecksum": "ae71fc0fc45348da433067258a733137"
        }
      ]
    }
  ],
  "data": {
    "created_at": "2017-10-11T17:01:10.000Z",
    "kid": "0b502959-54aa-4dc8-925a-2622f86b9867",
    "modified_at": "2021-02-25T12:18:39.947Z",
    "repository": "kara.moe",
    "tags": {
      "authors": [
        "5bdaba57-27f8-4568-8806-76a807728766"
      ],
      "collections": [
        "c7db86a0-ff64-4044-9be4-66dd1ef1d1c1"
      ],
      "creators": [
        "0e26434a-c89a-4366-85b5-9e5c4b7d4195"
      ],
      "families": [
        "0377db02-3af6-43b8-9b08-c759df3d25c3"
      ],
      "genres": [
        "a0aeef4a-6428-45ff-a6e1-468b595930c2"
      ],
      "groups": [
        "3c14c864-533c-49e6-a3cc-6969f1233775"
      ],
      "langs": [
        "4dcf9614-7914-42aa-99f4-dbce2e059133"
      ],
      "origins": [
        "938de218-5343-4865-94d3-fb33f2eaa152"
      ],
      "series": [
        "286c4e7f-97f7-4f02-8fbb-124ecdfdb761"
      ],
      "singers": [
        "8fe7b501-2229-4808-8611-44347b2ebd30"
      ],
      "songtypes": [
        "f02ad9b3-0bd9-4aad-85b3-9976739ba0e4"
      ],
      "songwriters": [
        "02a67ec5-6e52-4917-a234-f77db85d018c",
        "0350340b-c6a9-4c85-b6ff-92e4199a01f4"
      ],
      "franchises": [
        "601c1fcb-8218-407e-be99-ceea5eecfd03"
      ]
    },
    "title": "Happy Material",
    "titles": {
      "eng": "Happy Material",
      "jpn": "ハッピー☆マテリアル"
    },
    "year": 2005,
    "titles_default_language": "eng"
  }
}