{
  "header": {
    "version": 4,
    "description": "Karaoke Mugen Karaoke Data File"
  },
  "medias": [
    {
      "version": "Default",
      "filename": "JPN - Natsume Yuujinchou Go - ED - Akane Sasu.mp4",
      "audiogain": 2.32,
      "loudnorm": "-20.19,-8.64,8.90,-30.41,-1.96",
      "filesize": 14328372,
      "duration": 91,
      "default": true,
      "lyrics": [
        {
          "filename": "JPN - Natsume Yuujinchou Go - ED - Akane Sasu.ass",
          "default": true,
          "version": "Default",
          "subchecksum": "9695052c43b2c932189bde3ba509c6ee"
        }
      ]
    }
  ],
  "data": {
    "created_at": "2017-10-11T17:02:07.000Z",
    "kid": "dab31a4e-95dd-4615-9cfa-26a0ed919c47",
    "modified_at": "2021-02-25T12:34:40.046Z",
    "repository": "kara.moe",
    "tags": {
      "authors": [
        "6bebcb04-2694-453c-9e0c-eb1a2e2718d9"
      ],
      "collections": [
        "c7db86a0-ff64-4044-9be4-66dd1ef1d1c1"
      ],
      "creators": [
        "6fe330e2-40c8-460a-bbd7-a657ee85c385"
      ],
      "families": [
        "0377db02-3af6-43b8-9b08-c759df3d25c3"
      ],
      "groups": [
        "ae613721-1fbe-480d-ba6b-d6d0702b184d"
      ],
      "langs": [
        "4dcf9614-7914-42aa-99f4-dbce2e059133"
      ],
      "origins": [
        "938de218-5343-4865-94d3-fb33f2eaa152"
      ],
      "series": [
        "4f6070ef-6103-4940-9e3a-956b7e9e8067"
      ],
      "singers": [
        "6cfc20ab-c855-4f24-8bed-0981e465630b"
      ],
      "songtypes": [
        "38c77c56-2b95-4040-b676-0994a8cb0597"
      ],
      "songwriters": [
        "68890898-72a2-44a1-bdfc-f9c9d9c03899",
        "d86e5a62-25a2-44d2-86ba-7ab5d9685e3c"
      ],
      "franchises": [
        "3e71c48d-12c2-498b-93e8-c4bf42010bbe"
      ]
    },
    "title": "Akane Sasu",
    "titles": {
      "qro": "Akane Sasu",
      "jpn": "茜さす"
    },
    "year": 2016,
    "titles_default_language": "qro"
  }
}