{
  "header": {
    "version": 4,
    "description": "Karaoke Mugen Karaoke Data File"
  },
  "medias": [
    {
      "version": "Default",
      "filename": "JPN - Bocchi the Rock! - ED1 - Distortion!!.mp4",
      "audiogain": 1.84,
      "loudnorm": "-19.56,-8.65,3.40,-29.60,-0.70",
      "filesize": 12194721,
      "duration": 90,
      "default": true,
      "lyrics": [
        {
          "filename": "JPN - Bocchi the Rock! - ED1 - Distortion!!.ass",
          "default": true,
          "version": "Default"
        }
      ]
    }
  ],
  "data": {
    "comment": "enlevage de kf, et correction synchro",
    "created_at": "2022-11-06T19:26:51.869Z",
    "ignoreHooks": false,
    "kid": "57e167e1-a8c6-4bfb-94e5-9eafadda0344",
    "modified_at": "2023-06-04T19:39:04.941Z",
    "repository": "kara.moe",
    "songorder": 1,
    "tags": {
      "authors": [
        "4749577f-84d7-470b-bfa8-09c6f9a97c32"
      ],
      "collections": [
        "c7db86a0-ff64-4044-9be4-66dd1ef1d1c1"
      ],
      "creators": [
        "43cebb4a-845f-449b-bbd0-d97d96d97cb4"
      ],
      "families": [
        "0377db02-3af6-43b8-9b08-c759df3d25c3"
      ],
      "groups": [
        "8e209ae4-4381-438f-89dc-1b21752027d2"
      ],
      "langs": [
        "4dcf9614-7914-42aa-99f4-dbce2e059133"
      ],
      "misc": [
        "fe819ff1-9db8-4a0f-85dc-0e322c9126c4"
      ],
      "origins": [
        "938de218-5343-4865-94d3-fb33f2eaa152"
      ],
      "series": [
        "78fb1246-c87d-442b-aa2b-b7252da2452e"
      ],
      "singers": [
        "3612666b-1c13-4d11-8211-718aff40d7ad"
      ],
      "singergroups": [
        "4968c91e-6259-49e0-896e-3f611472de01"
      ],
      "songtypes": [
        "38c77c56-2b95-4040-b676-0994a8cb0597"
      ],
      "songwriters": [
        "07f58bb3-8690-4baf-be52-0c37a7e691ac",
        "80f6e1eb-0243-4027-8d98-8d255cadac4c"
      ]
    },
    "titles": {
      "eng": "Distortion!!"
    },
    "titles_default_language": "eng",
    "year": 2022
  }
}