{
  "header": {
    "version": 4,
    "description": "Karaoke Mugen Karaoke Data File"
  },
  "medias": [
    {
      "version": "Default",
      "filename": "JPN - Puni Puni Poemi - OVA ED - Yume Warai.Uhyohyo.mp4",
      "audiogain": -2.18,
      "loudnorm": "-16.09,-3.89,4.40,-26.23,-1.06",
      "filesize": 4403436,
      "duration": 98,
      "default": true,
      "lyrics": [
        {
          "filename": "JPN - Puni Puni Poemi - OVA ED - Yume Warai.Uhyohyo.ass",
          "default": true,
          "version": "Default"
        }
      ]
    }
  ],
  "data": {
    "created_at": "2022-04-30T15:22:13.777Z",
    "ignoreHooks": false,
    "kid": "a767030c-7347-45d9-b6c2-b7a39cc74517",
    "modified_at": "2022-04-30T15:22:14.312Z",
    "repository": "kara.moe",
    "tags": {
      "authors": [
        "a5dbab74-510b-48c5-9cea-5a537a81c974"
      ],
      "collections": [
        "c7db86a0-ff64-4044-9be4-66dd1ef1d1c1"
      ],
      "creators": [
        "802a8ac8-b16f-40a4-944b-99956798c906"
      ],
      "families": [
        "0377db02-3af6-43b8-9b08-c759df3d25c3"
      ],
      "langs": [
        "4dcf9614-7914-42aa-99f4-dbce2e059133"
      ],
      "misc": [
        "fe819ff1-9db8-4a0f-85dc-0e322c9126c4"
      ],
      "origins": [
        "2a6ef087-a000-4f8e-aeb5-9a7968756a36"
      ],
      "series": [
        "441f8ced-f7df-458b-95d9-fc3e6bc5fe53"
      ],
      "singers": [
        "a95784ac-3769-44ee-ac74-841d21d9e5ed"
      ],
      "songtypes": [
        "38c77c56-2b95-4040-b676-0994a8cb0597"
      ],
      "songwriters": [
        "6ac30e30-c43b-4382-8bc4-00f92d4db8d7",
        "657c6e14-022d-4680-a8d8-7b87cd4f8e4c"
      ],
      "groups": [
        "3c14c864-533c-49e6-a3cc-6969f1233775",
        "8c22c899-b3ed-42da-a548-ce00f950798b"
      ],
      "franchises": [
        "24af41f6-5e42-41fe-8ea2-2779de6bc5af"
      ]
    },
    "titles": {
      "qro": "Yume Warai・Uhyohyo",
      "jpn": "夢笑い・うひょひょ"
    },
    "titles_default_language": "qro",
    "title": "Yume Warai・Uhyohyo",
    "year": 2001
  }
}