{
  "header": {
    "version": 4,
    "description": "Karaoke Mugen Karaoke Data File"
  },
  "medias": [
    {
      "version": "Default",
      "filename": "JPN - Lui Takane - MV - Baka Bakka.mp4",
      "audiogain": -9.37,
      "loudnorm": "-8.86,1.02,9.30,-19.03,-1.19",
      "filesize": 55203607,
      "duration": 166,
      "default": true,
      "lyrics": [
        {
          "filename": "JPN - Lui Takane - MV - Baka Bakka.ass",
          "default": true,
          "version": "Default"
        }
      ]
    }
  ],
  "data": {
    "created_at": "2023-06-16T12:57:12.496Z",
    "ignoreHooks": false,
    "kid": "fba7d62f-68fb-456f-ae2a-f8d2bceadaa3",
    "modified_at": "2023-06-16T13:29:51.367Z",
    "repository": "kara.moe",
    "tags": {
      "authors": [
        "9cdf3b70-3550-457c-bdb9-038f3253c6ad"
      ],
      "collections": [
        "c7db86a0-ff64-4044-9be4-66dd1ef1d1c1",
        "dbcf2c22-524d-4708-99bb-601703633927"
      ],
      "creators": [
        "0263d413-17bb-4cee-a311-6dd896eda1c9",
        "1dc0f02e-7e9e-416c-88e6-a8bd05e94cd5"
      ],
      "families": [
        "0377db02-3af6-43b8-9b08-c759df3d25c3"
      ],
      "groups": [
        "8e209ae4-4381-438f-89dc-1b21752027d2"
      ],
      "langs": [
        "4dcf9614-7914-42aa-99f4-dbce2e059133"
      ],
      "origins": [
        "5106d71b-a78e-4d19-a16d-f8fb6719538a"
      ],
      "singers": [
        "b4e77e35-3b68-47a8-9c2b-75b3e5697457"
      ],
      "songtypes": [
        "7be1b15c-cff8-4b37-a649-5c90f3d569a9"
      ],
      "songwriters": [
        "6d9eaa90-048f-41d5-a264-8d73df69cc22",
        "b3ada1f2-ca72-49c8-8a31-06df2a512285"
      ]
    },
    "titles": {
      "jpn": "ばかばっか",
      "qro": "Baka Bakka"
    },
    "titles_default_language": "qro",
    "titles_aliases": [
      "Fools Fools Fools"
    ],
    "year": 2023
  }
}