{
  "header": {
    "version": 4,
    "description": "Karaoke Mugen Karaoke Data File"
  },
  "medias": [
    {
      "version": "Default",
      "filename": "JPN - Meitantei Conan - OP49 - Bara-iro no Jinsei.mp4",
      "audiogain": -0.97,
      "loudnorm": "-17.08,-5.77,1.90,-27.23,-0.11",
      "filesize": 84424023,
      "duration": 102,
      "default": true,
      "lyrics": [
        {
          "filename": "JPN - Meitantei Conan - OP49 - Bara-iro no Jinsei.ass",
          "default": true,
          "version": "Default"
        }
      ]
    }
  ],
  "data": {
    "created_at": "2023-03-15T21:28:33.127Z",
    "ignoreHooks": false,
    "kid": "adbf7a09-d2d9-4769-b6b1-010d633d460e",
    "modified_at": "2023-03-15T21:29:42.160Z",
    "repository": "kara.moe",
    "songorder": 49,
    "tags": {
      "authors": [
        "782c6220-03e3-443a-b607-064457b1ed7d"
      ],
      "collections": [
        "c7db86a0-ff64-4044-9be4-66dd1ef1d1c1"
      ],
      "creators": [
        "53e900ec-a1ff-4c95-8b2d-a63995c2936f"
      ],
      "families": [
        "0377db02-3af6-43b8-9b08-c759df3d25c3"
      ],
      "groups": [
        "8c22c899-b3ed-42da-a548-ce00f950798b",
        "ae613721-1fbe-480d-ba6b-d6d0702b184d"
      ],
      "langs": [
        "4dcf9614-7914-42aa-99f4-dbce2e059133"
      ],
      "origins": [
        "938de218-5343-4865-94d3-fb33f2eaa152"
      ],
      "series": [
        "cfea16f2-e07f-4a2c-93e2-5de6cf659d69"
      ],
      "singers": [
        "76436798-5200-4469-9be5-79db5b532d04"
      ],
      "songtypes": [
        "f02ad9b3-0bd9-4aad-85b3-9976739ba0e4"
      ],
      "songwriters": [
        "96c5114a-7034-4174-9635-b8a1f8403594"
      ],
      "franchises": [
        "cfea16f2-e07f-4a2c-93e2-5de6cf659d69"
      ]
    },
    "titles": {
      "jpn": "薔薇色の人生",
      "qro": "Bara-iro no Jinsei"
    },
    "titles_default_language": "qro",
    "titles_aliases": [
      "barairo"
    ],
    "year": 2019
  }
}