{
  "header": {
    "version": 4,
    "description": "Karaoke Mugen Karaoke Data File"
  },
  "medias": [
    {
      "version": "Default",
      "filename": "SPA - Dragon Ball Z - ED2 - Angeles fuimos.mp4",
      "audiogain": -10.19,
      "loudnorm": "-8.54,1.32,3.50,-18.70,-0.55",
      "filesize": 20779863,
      "duration": 96,
      "default": true,
      "lyrics": [
        {
          "filename": "SPA - Dragon Ball Z - ED2 - Angeles fuimos.ass",
          "default": true,
          "version": "Default"
        }
      ]
    }
  ],
  "data": {
    "created_at": "2022-09-11T16:28:38.001Z",
    "ignoreHooks": false,
    "kid": "58bad0e8-5400-43b1-a2de-75423b052940",
    "modified_at": "2022-09-11T16:29:06.633Z",
    "repository": "kara.moe",
    "songorder": 2,
    "tags": {
      "authors": [
        "5724f82e-adf8-4581-90f1-2801b625eef3"
      ],
      "collections": [
        "c7db86a0-ff64-4044-9be4-66dd1ef1d1c1"
      ],
      "creators": [
        "f694bf43-b427-4244-9744-9d3f84fd8a31"
      ],
      "families": [
        "0377db02-3af6-43b8-9b08-c759df3d25c3"
      ],
      "genres": [
        "a0aeef4a-6428-45ff-a6e1-468b595930c2"
      ],
      "groups": [
        "24db50aa-a126-4d34-a48a-e45db79c4245"
      ],
      "langs": [
        "11e9665f-f813-4495-bced-7ef9422cc992"
      ],
      "origins": [
        "938de218-5343-4865-94d3-fb33f2eaa152"
      ],
      "series": [
        "3cfa486b-0ab4-4969-85b7-113ae4450c42"
      ],
      "singers": [
        "00c2f80a-3d34-4571-b749-a5ce3ec1754c",
        "d3cdd19e-6588-4dde-a110-3f4413dc6c13"
      ],
      "songtypes": [
        "38c77c56-2b95-4040-b676-0994a8cb0597"
      ],
      "songwriters": [
        "2b8a32e8-5cdc-4c64-a571-01bd72df671c",
        "ab99f8a0-4502-4dc9-a192-2079dd4b234d"
      ],
      "franchises": [
        "c46f5c45-e15a-41b3-a3e6-a1ac023116e1"
      ]
    },
    "titles": {
      "spa": "Ángeles fuimos"
    },
    "titles_default_language": "spa",
    "title": "Ángeles fuimos",
    "year": 1995
  }
}