{
  "header": {
    "version": 4,
    "description": "Karaoke Mugen Karaoke Data File"
  },
  "medias": [
    {
      "version": "Default",
      "filename": "ZXX - Kamen Rider Hibiki - OP1 - Kagayaki.mp4",
      "audiogain": 5.92,
      "loudnorm": "-21.74,-8.18,11.50,-32.48,-0.42",
      "filesize": 9072380,
      "duration": 68,
      "default": true,
      "lyrics": []
    }
  ],
  "data": {
    "created_at": "2017-10-11T17:02:36.000Z",
    "kid": "b617571e-57c7-42de-b646-5de7cbe90471",
    "modified_at": "2021-02-25T13:50:59.810Z",
    "repository": "kara.moe",
    "songorder": 1,
    "tags": {
      "authors": [
        "e746046a-82f1-41af-aa58-e59c92f5c273"
      ],
      "collections": [
        "c7db86a0-ff64-4044-9be4-66dd1ef1d1c1"
      ],
      "creators": [
        "e32b14df-502b-45fa-9ca5-37554a63a4d7"
      ],
      "families": [
        "5391f9fe-638c-415f-8dc9-958e3a2c5787"
      ],
      "groups": [
        "3c14c864-533c-49e6-a3cc-6969f1233775"
      ],
      "langs": [
        "51e68bf8-01ab-4210-8e1f-26cbf2bd68be"
      ],
      "origins": [
        "938de218-5343-4865-94d3-fb33f2eaa152"
      ],
      "series": [
        "90eee3e2-0320-4292-9463-3f47ea0f88c6"
      ],
      "songtypes": [
        "f02ad9b3-0bd9-4aad-85b3-9976739ba0e4"
      ],
      "songwriters": [
        "ad9de3e0-673e-459b-ac88-178ae5e04341"
      ],
      "franchises": [
        "93386847-9ab0-468e-bad0-e1d655e0e0ec"
      ],
      "genres": [
        "d3fac9ab-630d-402d-a392-3d2450c3e62e"
      ]
    },
    "title": "Kagayaki",
    "titles": {
      "eng": "Kagayaki"
    },
    "year": 2005
  }
}