{
  "header": {
    "description": "Karaoke Mugen Tag File",
    "version": 1
  },
  "tag": {
    "i18n": {
      "eng": "2010s"
    },
    "name": "2010s",
    "tid": "ae613721-1fbe-480d-ba6b-d6d0702b184d",
    "types": [
      "9",
      "groups"
    ],
    "repository": "kara.moe",
    "modified_at": "2020-03-31T19:04:33.229Z"
  }
}