{
  "header": {
    "description": "Karaoke Mugen Tag File",
    "version": 1
  },
  "tag": {
    "aliases": [
      "Ace o Nerae"
    ],
    "external_database_ids": {
      "anilist": 311,
      "myanimelist": 311,
      "kitsu": 281
    },
    "i18n": {
      "eng": "Aim for the Ace!",
      "fre": "Jeu, set et match !",
      "jpn": "エースをねらえ!",
      "qro": "Ace wo Nerae!"
    },
    "name": "Ace wo Nerae!",
    "repository": "kara.moe",
    "tid": "29d2716b-deea-41c4-a1e4-096beddebc4e",
    "types": [
      "1",
      "18",
      "franchises",
      "series"
    ]
  }
}