{
  "header": {
    "description": "Karaoke Mugen Tag File",
    "version": 1
  },
  "tag": {
    "aliases": [
      "Akagami no Shirayukihime"
    ],
    "external_database_ids": {
      "anilist": 21258,
      "myanimelist": 31173,
      "kitsu": 11179
    },
    "i18n": {
      "eng": "Snow White with the Red Hair 2nd Season",
      "fre": "Shirayuki aux cheveux rouges S2",
      "ger": "Die rothaarige Schneeprinzessin 2",
      "jpn": "赤髪の白雪姫 Snow White with the Red Hair (2016)",
      "qro": "Akagami no Shirayuki-hime S2"
    },
    "modified_at": "2020-03-31T19:04:30.910Z",
    "name": "Akagami no Shirayuki-hime S2",
    "repository": "kara.moe",
    "tid": "19eac791-abf1-4c7d-b8f9-9f8489654e3e",
    "types": [
      "1",
      "series"
    ]
  }
}