{
  "header": {
    "description": "Karaoke Mugen Tag File",
    "version": 1
  },
  "tag": {
    "i18n": {
      "eng": "Aria Entertainment"
    },
    "name": "Aria Entertainment",
    "repository": "kara.moe",
    "tid": "de902543-7032-4edd-a407-6c9fade246cd",
    "types": [
      "4",
      "creators"
    ]
  }
}