{
  "header": {
    "description": "Karaoke Mugen Tag File",
    "version": 1
  },
  "tag": {
    "aliases": [
      "Season 2"
    ],
    "external_database_ids": {
      "anilist": 159926,
      "kitsu": 46958,
      "myanimelist": 54141
    },
    "i18n": {
      "eng": "Bastard!! Heavy Metal, Dark Fantasy: Hell's Requiem Arc",
      "jpn": "BASTARD!! -暗黒の破壊神- 地獄の鎮魂歌編",
      "qro": "Bastard!! Ankoku no Hakaishin: Jigoku no Chinkonka Hen",
      "por": "BASTARD‼ -Heavy Metal, Dark Fantasy- Requiem do Inferno"
    },
    "name": "Bastard!! Ankoku no Hakaishin: Jigoku no Chinkonka Hen",
    "repository": "kara.moe",
    "tid": "fd4d6d8e-5abe-475e-a2c6-99c0d6ddc0d4",
    "types": [
      "1",
      "series"
    ]
  }
}