{
  "header": {
    "description": "Karaoke Mugen Tag File",
    "version": 1
  },
  "tag": {
    "aliases": [
      "Reprise"
    ],
    "description": {
      "fre": "Musique chantée par un autre artiste que celui d'origine, habituellement des Youtubeurs, Vtubers, etc...",
      "eng": "Music sung by an artist other than the original one, usually Youtubers, Vtubers, etc..."
    },
    "i18n": {
      "eng": "Cover"
    },
    "name": "Cover",
    "repository": "kara.moe",
    "tid": "03e1e1d2-8641-47b7-bbcb-39a3df9ff21c",
    "types": [
      "14",
      "versions"
    ]
  }
}