{
  "header": {
    "description": "Karaoke Mugen Tag File",
    "version": 1
  },
  "tag": {
    "aliases": [
      "Dig Delight Direct Drive DJ D4DJ Animation Season 2"
    ],
    "external_database_ids": {
      "anilist": 147216,
      "kitsu": 46507,
      "myanimelist": 51586
    },
    "i18n": {
      "eng": "D4DJ All Mix"
    },
    "name": "D4DJ All Mix",
    "repository": "kara.moe",
    "tid": "ea16412c-3971-45f5-b229-15bb481eb447",
    "types": [
      "1",
      "series"
    ]
  }
}