{
  "header": {
    "description": "Karaoke Mugen Tag File",
    "version": 1
  },
  "tag": {
    "aliases": [
      "Danball Senki Double"
    ],
    "external_database_ids": {
      "anilist": 12651,
      "myanimelist": 12651,
      "kitsu": 6779
    },
    "i18n": {
      "eng": "LBX: Little Battlers eXperience 2nd Season",
      "jpn": "ダンボール戦機W",
      "qro": "Danball Senki W"
    },
    "modified_at": "2020-03-31T19:04:31.282Z",
    "name": "Danball Senki W",
    "repository": "kara.moe",
    "tid": "571c7c70-da88-43e9-bb7b-7abbc9d27a00",
    "types": [
      "1",
      "series"
    ]
  }
}