{
  "header": {
    "description": "Karaoke Mugen Tag File",
    "version": 1
  },
  "tag": {
    "aliases": [
      "Densetsu Kyoujin Ideon",
      "Great God Legend Ideon",
      "Legendary Giant God Ideon",
      "Space Runaway Ideon"
    ],
    "external_database_ids": {
      "anilist": 930,
      "myanimelist": 930,
      "kitsu": 828
    },
    "i18n": {
      "eng": "Space Runaway Ideon",
      "jpn": "伝説巨神イデオン",
      "qro": "Densetsu Kyojin Ideon"
    },
    "modified_at": "2020-06-21T23:45:31.966Z",
    "name": "Densetsu Kyojin Ideon",
    "repository": "kara.moe",
    "tid": "299da804-0d16-497a-86ac-92ea2362b5a1",
    "types": [
      "1",
      "18",
      "franchises",
      "series"
    ]
  }
}