{
  "header": {
    "description": "Karaoke Mugen Tag File",
    "version": 1
  },
  "tag": {
    "external_database_ids": {
      "anilist": 144932,
      "kitsu": 45847,
      "myanimelist": 50002
    },
    "i18n": {
      "chi": "伊甸星原 第二季",
      "eng": "Edens Zero Season 2"
    },
    "name": "Edens Zero Season 2",
    "repository": "kara.moe",
    "tid": "c590776a-4bb8-4b49-8330-3fe8c2084e13",
    "types": [
      "1",
      "series"
    ]
  }
}