{
  "header": {
    "description": "Karaoke Mugen Tag File",
    "version": 1
  },
  "tag": {
    "i18n": {
      "eng": "Hana"
    },
    "name": "Hana",
    "tid": "2e4a627e-b3af-43b6-afaf-a5b055bc29f4",
    "types": [
      "2",
      "singers"
    ],
    "repository": "kara.moe",
    "modified_at": "2020-03-31T19:04:34.614Z"
  }
}