{
  "header": {
    "description": "Karaoke Mugen Tag File",
    "version": 1
  },
  "tag": {
    "i18n": {
      "eng": "Hitomi"
    },
    "name": "Hitomi",
    "tid": "caa0e5a1-0086-41cf-ab99-e3ddad99cd26",
    "types": [
      "2",
      "singers"
    ],
    "repository": "kara.moe",
    "modified_at": "2020-03-31T19:04:34.863Z"
  }
}