{
  "header": {
    "description": "Karaoke Mugen Tag File",
    "version": 1
  },
  "tag": {
    "i18n": {
      "qro": "KAIHARA",
      "jpn": "恢原"
    },
    "name": "KAIHARA",
    "repository": "kara.moe",
    "tid": "749102ca-8576-4f10-a6ed-7619ce332722",
    "types": [
      "4",
      "creators"
    ]
  }
}