{
  "header": {
    "description": "Karaoke Mugen Tag File",
    "version": 1
  },
  "tag": {
    "i18n": {
      "jpn": "松隈ケンタ",
      "qro": "Kenta Matsukuma"
    },
    "name": "Kenta Matsukuma",
    "repository": "kara.moe",
    "tid": "2ac9c56b-150e-4266-ae41-d2b635b34691",
    "types": [
      "8",
      "songwriters"
    ]
  }
}