{
  "header": {
    "description": "Karaoke Mugen Tag File",
    "version": 1
  },
  "tag": {
    "external_database_ids": {
      "anilist": 97631,
      "kitsu": 12598,
      "myanimelist": 34032
    },
    "i18n": {
      "eng": "King of Prism: Pride the Hero"
    },
    "name": "King of Prism: Pride the Hero",
    "repository": "kara.moe",
    "tid": "790c4b6c-f1d1-473e-80b2-cf7252429c80",
    "types": [
      "1",
      "series"
    ]
  }
}