{
  "header": {
    "description": "Karaoke Mugen Tag File",
    "version": 1
  },
  "tag": {
    "i18n": {
      "eng": "MCTC"
    },
    "name": "MCTC",
    "repository": "kara.moe",
    "tid": "4fefbdcb-54f2-49dc-96c3-15070120002e",
    "types": [
      "8",
      "songwriters"
    ]
  }
}