{
  "header": {
    "description": "Karaoke Mugen Tag File",
    "version": 1
  },
  "tag": {
    "i18n": {
      "eng": "Nicha Yontararak"
    },
    "name": "Nicha Yontararak",
    "repository": "kara.moe",
    "tid": "16f0931f-1357-4bb6-be27-17411c90c1a5",
    "types": [
      "2",
      "singers"
    ]
  }
}