{
  "header": {
    "description": "Karaoke Mugen Tag File",
    "version": 1
  },
  "tag": {
    "i18n": {
      "eng": "Novel Core"
    },
    "name": "Novel Core",
    "repository": "kara.moe",
    "tid": "4a42e711-593c-4581-871c-c814140f9eac",
    "types": [
      "2",
      "8",
      "singers",
      "songwriters"
    ]
  }
}