{
  "header": {
    "description": "Karaoke Mugen Tag File",
    "version": 1
  },
  "tag": {
    "description": {
      "fre": "Musique dont les paroles ont été supprimées",
      "eng": "Music from which the lyrics have been removed"
    },
    "i18n": {
      "fre": "Instrumentale"
    },
    "name": "Off Vocal",
    "priority": 1,
    "repository": "kara.moe",
    "tid": "c0cc87b9-55b9-40f0-878a-fbb9e34c151e",
    "types": [
      "14",
      "versions"
    ]
  }
}