{
  "header": {
    "description": "Karaoke Mugen Tag File",
    "version": 1
  },
  "tag": {
    "i18n": {
      "eng": "okogeeechann"
    },
    "name": "okogeeechann",
    "repository": "kara.moe",
    "tid": "a771ebbf-6c0f-48c6-9715-466b792a7970",
    "types": [
      "2",
      "singers"
    ]
  }
}