{
  "header": {
    "description": "Karaoke Mugen Tag File",
    "version": 1
  },
  "tag": {
    "i18n": {
      "eng": "Piccolo Town"
    },
    "modified_at": "2021-03-18T22:29:22.685Z",
    "name": "Piccolo Town",
    "repository": "kara.moe",
    "tid": "00e80711-463d-476e-8496-bcac9b8e6ab8",
    "types": [
      "4",
      "creators"
    ]
  }
}