{
  "header": {
    "description": "Karaoke Mugen Tag File",
    "version": 1
  },
  "tag": {
    "i18n": {
      "jpn": "来栖りん",
      "qro": "Rin Kurusu"
    },
    "name": "Rin Kurusu",
    "repository": "kara.moe",
    "tid": "5df2c6f5-cb7c-49f1-bcc1-54ebffa59f6d",
    "types": [
      "2",
      "singers"
    ]
  }
}