{
  "header": {
    "description": "Karaoke Mugen Tag File",
    "version": 1
  },
  "tag": {
    "i18n": {
      "eng": "Sota Hanamura"
    },
    "name": "Sota Hanamura",
    "repository": "kara.moe",
    "tid": "6c979eb1-e628-4e8b-88b8-441948ea24d7",
    "types": [
      "8",
      "songwriters"
    ]
  }
}