{
  "header": {
    "description": "Karaoke Mugen Tag File",
    "version": 1
  },
  "tag": {
    "aliases": [
      "A Melancolia de Haruhi Suzumiya",
      "A Melancolia de Suzumiya Haruhi",
      "Haruhi 1",
      "Haruhi 2006",
      "Haruhi S1",
      "Haruhi Suzumijos Melancholija",
      "La Malenconia d'Haruhi Suzumiya",
      "La Melancolía de Haruhi Suzumiya",
      "Nỗi u sầu của Suzumiya Haruhi",
      "SHnY",
      "Suhayu",
      "Suzumiya Haruhi no Yuutsu",
      "Suzumiya Haruhi no Yuuutsu",
      "mohs",
      "suzuharu",
      "Η μελαγχολία της Σουζουμίγια Χάρουχι",
      "Меланхолията на Сузумия Харухи",
      "Меланхолія Судзумії Харухі",
      "Нудьга Судзумії Харухі",
      "كآبة سوزومويا هاروهي",
      "ฮารุฮิ",
      "凉宫",
      "yuuutsu"
    ],
    "external_database_ids": {
      "anilist": 849,
      "myanimelist": 849,
      "kitsu": 751
    },
    "i18n": {
      "chi": "涼宮春日的憂鬱",
      "eng": "The Melancholy of Haruhi Suzumiya",
      "est": "Haruhi Suzumiya melanhoolia",
      "fre": "La Mélancolie de Haruhi Suzumiya",
      "ger": "Die Melancholie der Haruhi Suzumiya",
      "ita": "La malinconia di Haruhi Suzumiya",
      "jpn": "涼宮ハルヒの憂鬱",
      "kor": "스즈미야 하루히의 우울",
      "pol": "Melancholia Haruhi Suzumiyi",
      "rus": "Меланхолия Харухи Судзумии",
      "tha": "เรียกเธอว่าพระเจ้า สึซึมิยะ ฮารุฮิ",
      "qro": "Suzumiya Haruhi no Yûutsu"
    },
    "modified_at": "2020-06-21T23:45:31.966Z",
    "name": "Suzumiya Haruhi no Yûutsu",
    "repository": "kara.moe",
    "tid": "4f132535-c7b6-4147-a324-6995aad44df7",
    "types": [
      "1",
      "18",
      "franchises",
      "series"
    ]
  }
}