{
  "header": {
    "description": "Karaoke Mugen Tag File",
    "version": 1
  },
  "tag": {
    "i18n": {
      "eng": "The Series of Haruhi Suzumiya",
      "qro": "Suzumiya Haruhi no Chokuretsu",
      "jpn": "涼宮ハルヒの直列"
    },
    "name": "Suzumiya Haruhi no Chokuretsu",
    "repository": "kara.moe",
    "tid": "6de239f7-e739-431f-b675-e2474a5c035c",
    "types": [
      "1",
      "series"
    ]
  }
}