{
  "header": {
    "description": "Karaoke Mugen Tag File",
    "version": 1
  },
  "tag": {
    "i18n": {
      "eng": "Taro Kikuike"
    },
    "name": "Taro Kikuike",
    "repository": "kara.moe",
    "tid": "f59178fb-d9c4-47c1-be55-4048b90530f1",
    "types": [
      "8",
      "songwriters"
    ]
  }
}