{
  "header": {
    "description": "Karaoke Mugen Tag File",
    "version": 1
  },
  "tag": {
    "i18n": {
      "eng": "Tatsurô"
    },
    "name": "Tatsurô",
    "tid": "97ef111d-4746-4faa-96fd-9d47f09fbb6c",
    "types": [
      "8",
      "songwriters"
    ],
    "repository": "kara.moe",
    "modified_at": "2020-03-31T19:04:38.011Z"
  }
}