{
  "header": {
    "description": "Karaoke Mugen Tag File",
    "version": 1
  },
  "tag": {
    "i18n": {
      "eng": "Trixie (Sarah Burgess)"
    },
    "name": "Trixie (Sarah Burgess)",
    "repository": "kara.moe",
    "tid": "5f0a64a8-5806-4d5c-bebc-07cbab4cec89",
    "types": [
      "2",
      "singers"
    ]
  }
}