{
  "header": {
    "description": "Karaoke Mugen Tag File",
    "version": 1
  },
  "tag": {
    "aliases": [
      "노윤아",
      "Noh Yunah"
    ],
    "i18n": {
      "eng": "Yunah",
      "kor": "윤아"
    },
    "name": "Yunah",
    "repository": "kara.moe",
    "tid": "2cbcc65c-1309-4287-9343-05be7a9052d9",
    "types": [
      "2",
      "singers"
    ]
  }
}